(kicad_pcb (version 20160815) (host pcbnew "(2016-11-28 revision a95df84)-master")

  (general
    (links 57)
    (no_connects 57)
    (area 138.6 55.8 259.500001 175.800001)
    (thickness 1.6)
    (drawings 30)
    (tracks 0)
    (zones 0)
    (modules 38)
    (nets 28)
  )

  (page A4)
  (layers
    (0 F.Cu signal)
    (31 B.Cu signal)
    (32 B.Adhes user)
    (33 F.Adhes user)
    (34 B.Paste user)
    (35 F.Paste user)
    (36 B.SilkS user)
    (37 F.SilkS user)
    (38 B.Mask user)
    (39 F.Mask user)
    (40 Dwgs.User user)
    (41 Cmts.User user)
    (42 Eco1.User user)
    (43 Eco2.User user)
    (44 Edge.Cuts user)
    (45 Margin user)
    (46 B.CrtYd user)
    (47 F.CrtYd user)
    (48 B.Fab user)
    (49 F.Fab user)
  )

  (setup
    (last_trace_width 0.25)
    (trace_clearance 0.2)
    (zone_clearance 0.508)
    (zone_45_only no)
    (trace_min 0.2)
    (segment_width 0.2)
    (edge_width 0.15)
    (via_size 0.8)
    (via_drill 0.4)
    (via_min_size 0.4)
    (via_min_drill 0.3)
    (uvia_size 0.3)
    (uvia_drill 0.1)
    (uvias_allowed no)
    (uvia_min_size 0.2)
    (uvia_min_drill 0.1)
    (pcb_text_width 0.3)
    (pcb_text_size 1.5 1.5)
    (mod_edge_width 0.15)
    (mod_text_size 1 1)
    (mod_text_width 0.15)
    (pad_size 1.524 1.524)
    (pad_drill 0.762)
    (pad_to_mask_clearance 0.2)
    (aux_axis_origin 0 0)
    (visible_elements FFFFF77F)
    (pcbplotparams
      (layerselection 0x00030_ffffffff)
      (usegerberextensions false)
      (excludeedgelayer true)
      (linewidth 0.100000)
      (plotframeref false)
      (viasonmask false)
      (mode 1)
      (useauxorigin false)
      (hpglpennumber 1)
      (hpglpenspeed 20)
      (hpglpendiameter 15)
      (psnegative false)
      (psa4output false)
      (plotreference true)
      (plotvalue true)
      (plotinvisibletext false)
      (padsonsilk false)
      (subtractmaskfromsilk false)
      (outputformat 1)
      (mirror false)
      (drillshape 0)
      (scaleselection 1)
      (outputdirectory ""))
  )

  (net 0 "")
  (net 1 "Net-(D1-Pad1)")
  (net 2 "Net-(D1-Pad2)")
  (net 3 "Net-(D2-Pad2)")
  (net 4 "Net-(D3-Pad2)")
  (net 5 "Net-(D4-Pad2)")
  (net 6 "Net-(D5-Pad2)")
  (net 7 "Net-(D6-Pad2)")
  (net 8 "Net-(D7-Pad2)")
  (net 9 "Net-(D8-Pad2)")
  (net 10 "Net-(D9-Pad2)")
  (net 11 "Net-(D10-Pad2)")
  (net 12 "Net-(D11-Pad2)")
  (net 13 "Net-(D12-Pad2)")
  (net 14 "Net-(D13-Pad2)")
  (net 15 "Net-(D14-Pad2)")
  (net 16 "Net-(D15-Pad2)")
  (net 17 "Net-(D16-Pad2)")
  (net 18 "Net-(LS1-Pad1)")
  (net 19 GND)
  (net 20 "Net-(P1-Pad4)")
  (net 21 "Net-(P1-Pad3)")
  (net 22 "Net-(P1-Pad2)")
  (net 23 "Net-(P1-Pad1)")
  (net 24 "Net-(P3-Pad4)")
  (net 25 "Net-(D11-Pad1)")
  (net 26 "Net-(D12-Pad1)")
  (net 27 "Net-(D13-Pad1)")

  (net_class Default "これは標準のネット クラスです。"
    (clearance 0.2)
    (trace_width 0.25)
    (via_dia 0.8)
    (via_drill 0.4)
    (uvia_dia 0.3)
    (uvia_drill 0.1)
    (diff_pair_gap 0.25)
    (diff_pair_width 0.2)
    (add_net GND)
    (add_net "Net-(D1-Pad1)")
    (add_net "Net-(D1-Pad2)")
    (add_net "Net-(D10-Pad2)")
    (add_net "Net-(D11-Pad1)")
    (add_net "Net-(D11-Pad2)")
    (add_net "Net-(D12-Pad1)")
    (add_net "Net-(D12-Pad2)")
    (add_net "Net-(D13-Pad1)")
    (add_net "Net-(D13-Pad2)")
    (add_net "Net-(D14-Pad2)")
    (add_net "Net-(D15-Pad2)")
    (add_net "Net-(D16-Pad2)")
    (add_net "Net-(D2-Pad2)")
    (add_net "Net-(D3-Pad2)")
    (add_net "Net-(D4-Pad2)")
    (add_net "Net-(D5-Pad2)")
    (add_net "Net-(D6-Pad2)")
    (add_net "Net-(D7-Pad2)")
    (add_net "Net-(D8-Pad2)")
    (add_net "Net-(D9-Pad2)")
    (add_net "Net-(LS1-Pad1)")
    (add_net "Net-(P1-Pad1)")
    (add_net "Net-(P1-Pad2)")
    (add_net "Net-(P1-Pad3)")
    (add_net "Net-(P1-Pad4)")
    (add_net "Net-(P3-Pad4)")
  )

  (module LEDs:LED_1206 (layer F.Cu) (tedit 57ABE035) (tstamp 58417315)
    (at 190.4 70)
    (descr "LED 1206 smd package")
    (tags "LED1206 SMD")
    (path /5848FCFE)
    (attr smd)
    (fp_text reference D1 (at 0 -2) (layer F.SilkS)
      (effects (font (size 1 1) (thickness 0.15)))
    )
    (fp_text value LED (at 0 2) (layer F.Fab)
      (effects (font (size 1 1) (thickness 0.15)))
    )
    (fp_line (start 2.5 1.25) (end 2.5 -1.25) (layer F.CrtYd) (width 0.05))
    (fp_line (start -2.5 1.25) (end 2.5 1.25) (layer F.CrtYd) (width 0.05))
    (fp_line (start -2.5 -1.25) (end -2.5 1.25) (layer F.CrtYd) (width 0.05))
    (fp_line (start 2.5 -1.25) (end -2.5 -1.25) (layer F.CrtYd) (width 0.05))
    (fp_line (start 0 0.5) (end -0.5 0) (layer F.SilkS) (width 0.15))
    (fp_line (start 0 -0.5) (end 0 0.5) (layer F.SilkS) (width 0.15))
    (fp_line (start -0.5 0) (end 0 -0.5) (layer F.SilkS) (width 0.15))
    (fp_line (start 0 0) (end 0.5 0) (layer F.SilkS) (width 0.15))
    (fp_line (start -0.5 -0.5) (end -0.5 0.5) (layer F.SilkS) (width 0.15))
    (fp_line (start -0.2 0.05) (end -0.25 0) (layer F.SilkS) (width 0.15))
    (fp_line (start -0.2 -0.2) (end -0.2 0.05) (layer F.SilkS) (width 0.15))
    (fp_line (start -0.4 0) (end -0.2 -0.2) (layer F.SilkS) (width 0.15))
    (fp_line (start -0.1 0.3) (end -0.4 0) (layer F.SilkS) (width 0.15))
    (fp_line (start -0.1 -0.3) (end -0.1 0.3) (layer F.SilkS) (width 0.15))
    (fp_line (start -2.15 -1.05) (end 1.45 -1.05) (layer F.SilkS) (width 0.15))
    (fp_line (start -2.15 1.05) (end 1.45 1.05) (layer F.SilkS) (width 0.15))
    (fp_line (start -1.6 -0.8) (end 1.6 -0.8) (layer F.Fab) (width 0.15))
    (fp_line (start 1.6 -0.8) (end 1.6 0.8) (layer F.Fab) (width 0.15))
    (fp_line (start 1.6 0.8) (end -1.6 0.8) (layer F.Fab) (width 0.15))
    (fp_line (start -1.6 0.8) (end -1.6 -0.8) (layer F.Fab) (width 0.15))
    (fp_line (start 0 -0.5) (end 0 0.5) (layer F.Fab) (width 0.15))
    (fp_line (start 0 0.5) (end -0.5 0) (layer F.Fab) (width 0.15))
    (fp_line (start -0.5 0) (end 0 -0.5) (layer F.Fab) (width 0.15))
    (fp_line (start -0.5 -0.5) (end -0.5 0.5) (layer F.Fab) (width 0.15))
    (pad 1 smd rect (at -1.41986 0 180) (size 1.59766 1.80086) (layers F.Cu F.Paste F.Mask)
      (net 1 "Net-(D1-Pad1)"))
    (pad 2 smd rect (at 1.41986 0 180) (size 1.59766 1.80086) (layers F.Cu F.Paste F.Mask)
      (net 2 "Net-(D1-Pad2)"))
    (model LEDs.3dshapes/LED_1206.wrl
      (at (xyz 0 0 0))
      (scale (xyz 1 1 1))
      (rotate (xyz 0 0 180))
    )
  )

  (module LEDs:LED_1206 (layer B.Cu) (tedit 57ABE035) (tstamp 5841731B)
    (at 181 95)
    (descr "LED 1206 smd package")
    (tags "LED1206 SMD")
    (path /5848FF04)
    (attr smd)
    (fp_text reference D2 (at 0 2) (layer B.SilkS)
      (effects (font (size 1 1) (thickness 0.15)) (justify mirror))
    )
    (fp_text value LED (at 0 -2) (layer B.Fab)
      (effects (font (size 1 1) (thickness 0.15)) (justify mirror))
    )
    (fp_line (start 2.5 -1.25) (end 2.5 1.25) (layer B.CrtYd) (width 0.05))
    (fp_line (start -2.5 -1.25) (end 2.5 -1.25) (layer B.CrtYd) (width 0.05))
    (fp_line (start -2.5 1.25) (end -2.5 -1.25) (layer B.CrtYd) (width 0.05))
    (fp_line (start 2.5 1.25) (end -2.5 1.25) (layer B.CrtYd) (width 0.05))
    (fp_line (start 0 -0.5) (end -0.5 0) (layer B.SilkS) (width 0.15))
    (fp_line (start 0 0.5) (end 0 -0.5) (layer B.SilkS) (width 0.15))
    (fp_line (start -0.5 0) (end 0 0.5) (layer B.SilkS) (width 0.15))
    (fp_line (start 0 0) (end 0.5 0) (layer B.SilkS) (width 0.15))
    (fp_line (start -0.5 0.5) (end -0.5 -0.5) (layer B.SilkS) (width 0.15))
    (fp_line (start -0.2 -0.05) (end -0.25 0) (layer B.SilkS) (width 0.15))
    (fp_line (start -0.2 0.2) (end -0.2 -0.05) (layer B.SilkS) (width 0.15))
    (fp_line (start -0.4 0) (end -0.2 0.2) (layer B.SilkS) (width 0.15))
    (fp_line (start -0.1 -0.3) (end -0.4 0) (layer B.SilkS) (width 0.15))
    (fp_line (start -0.1 0.3) (end -0.1 -0.3) (layer B.SilkS) (width 0.15))
    (fp_line (start -2.15 1.05) (end 1.45 1.05) (layer B.SilkS) (width 0.15))
    (fp_line (start -2.15 -1.05) (end 1.45 -1.05) (layer B.SilkS) (width 0.15))
    (fp_line (start -1.6 0.8) (end 1.6 0.8) (layer B.Fab) (width 0.15))
    (fp_line (start 1.6 0.8) (end 1.6 -0.8) (layer B.Fab) (width 0.15))
    (fp_line (start 1.6 -0.8) (end -1.6 -0.8) (layer B.Fab) (width 0.15))
    (fp_line (start -1.6 -0.8) (end -1.6 0.8) (layer B.Fab) (width 0.15))
    (fp_line (start 0 0.5) (end 0 -0.5) (layer B.Fab) (width 0.15))
    (fp_line (start 0 -0.5) (end -0.5 0) (layer B.Fab) (width 0.15))
    (fp_line (start -0.5 0) (end 0 0.5) (layer B.Fab) (width 0.15))
    (fp_line (start -0.5 0.5) (end -0.5 -0.5) (layer B.Fab) (width 0.15))
    (pad 1 smd rect (at -1.41986 0 180) (size 1.59766 1.80086) (layers B.Cu B.Paste B.Mask)
      (net 1 "Net-(D1-Pad1)"))
    (pad 2 smd rect (at 1.41986 0 180) (size 1.59766 1.80086) (layers B.Cu B.Paste B.Mask)
      (net 3 "Net-(D2-Pad2)"))
    (model LEDs.3dshapes/LED_1206.wrl
      (at (xyz 0 0 0))
      (scale (xyz 1 1 1))
      (rotate (xyz 0 0 180))
    )
  )

  (module LEDs:LED_1206 (layer F.Cu) (tedit 57ABE035) (tstamp 58417321)
    (at 217 95 180)
    (descr "LED 1206 smd package")
    (tags "LED1206 SMD")
    (path /5848FF6C)
    (attr smd)
    (fp_text reference D3 (at 0 -2 180) (layer F.SilkS)
      (effects (font (size 1 1) (thickness 0.15)))
    )
    (fp_text value LED (at 0 2 180) (layer F.Fab)
      (effects (font (size 1 1) (thickness 0.15)))
    )
    (fp_line (start 2.5 1.25) (end 2.5 -1.25) (layer F.CrtYd) (width 0.05))
    (fp_line (start -2.5 1.25) (end 2.5 1.25) (layer F.CrtYd) (width 0.05))
    (fp_line (start -2.5 -1.25) (end -2.5 1.25) (layer F.CrtYd) (width 0.05))
    (fp_line (start 2.5 -1.25) (end -2.5 -1.25) (layer F.CrtYd) (width 0.05))
    (fp_line (start 0 0.5) (end -0.5 0) (layer F.SilkS) (width 0.15))
    (fp_line (start 0 -0.5) (end 0 0.5) (layer F.SilkS) (width 0.15))
    (fp_line (start -0.5 0) (end 0 -0.5) (layer F.SilkS) (width 0.15))
    (fp_line (start 0 0) (end 0.5 0) (layer F.SilkS) (width 0.15))
    (fp_line (start -0.5 -0.5) (end -0.5 0.5) (layer F.SilkS) (width 0.15))
    (fp_line (start -0.2 0.05) (end -0.25 0) (layer F.SilkS) (width 0.15))
    (fp_line (start -0.2 -0.2) (end -0.2 0.05) (layer F.SilkS) (width 0.15))
    (fp_line (start -0.4 0) (end -0.2 -0.2) (layer F.SilkS) (width 0.15))
    (fp_line (start -0.1 0.3) (end -0.4 0) (layer F.SilkS) (width 0.15))
    (fp_line (start -0.1 -0.3) (end -0.1 0.3) (layer F.SilkS) (width 0.15))
    (fp_line (start -2.15 -1.05) (end 1.45 -1.05) (layer F.SilkS) (width 0.15))
    (fp_line (start -2.15 1.05) (end 1.45 1.05) (layer F.SilkS) (width 0.15))
    (fp_line (start -1.6 -0.8) (end 1.6 -0.8) (layer F.Fab) (width 0.15))
    (fp_line (start 1.6 -0.8) (end 1.6 0.8) (layer F.Fab) (width 0.15))
    (fp_line (start 1.6 0.8) (end -1.6 0.8) (layer F.Fab) (width 0.15))
    (fp_line (start -1.6 0.8) (end -1.6 -0.8) (layer F.Fab) (width 0.15))
    (fp_line (start 0 -0.5) (end 0 0.5) (layer F.Fab) (width 0.15))
    (fp_line (start 0 0.5) (end -0.5 0) (layer F.Fab) (width 0.15))
    (fp_line (start -0.5 0) (end 0 -0.5) (layer F.Fab) (width 0.15))
    (fp_line (start -0.5 -0.5) (end -0.5 0.5) (layer F.Fab) (width 0.15))
    (pad 1 smd rect (at -1.41986 0) (size 1.59766 1.80086) (layers F.Cu F.Paste F.Mask)
      (net 1 "Net-(D1-Pad1)"))
    (pad 2 smd rect (at 1.41986 0) (size 1.59766 1.80086) (layers F.Cu F.Paste F.Mask)
      (net 4 "Net-(D3-Pad2)"))
    (model LEDs.3dshapes/LED_1206.wrl
      (at (xyz 0 0 0))
      (scale (xyz 1 1 1))
      (rotate (xyz 0 0 180))
    )
  )

  (module LEDs:LED_1206 (layer B.Cu) (tedit 57ABE035) (tstamp 58417327)
    (at 217.2 114.8 180)
    (descr "LED 1206 smd package")
    (tags "LED1206 SMD")
    (path /584918C3)
    (attr smd)
    (fp_text reference D4 (at 0 2 180) (layer B.SilkS)
      (effects (font (size 1 1) (thickness 0.15)) (justify mirror))
    )
    (fp_text value LED (at 0 -2 180) (layer B.Fab)
      (effects (font (size 1 1) (thickness 0.15)) (justify mirror))
    )
    (fp_line (start 2.5 -1.25) (end 2.5 1.25) (layer B.CrtYd) (width 0.05))
    (fp_line (start -2.5 -1.25) (end 2.5 -1.25) (layer B.CrtYd) (width 0.05))
    (fp_line (start -2.5 1.25) (end -2.5 -1.25) (layer B.CrtYd) (width 0.05))
    (fp_line (start 2.5 1.25) (end -2.5 1.25) (layer B.CrtYd) (width 0.05))
    (fp_line (start 0 -0.5) (end -0.5 0) (layer B.SilkS) (width 0.15))
    (fp_line (start 0 0.5) (end 0 -0.5) (layer B.SilkS) (width 0.15))
    (fp_line (start -0.5 0) (end 0 0.5) (layer B.SilkS) (width 0.15))
    (fp_line (start 0 0) (end 0.5 0) (layer B.SilkS) (width 0.15))
    (fp_line (start -0.5 0.5) (end -0.5 -0.5) (layer B.SilkS) (width 0.15))
    (fp_line (start -0.2 -0.05) (end -0.25 0) (layer B.SilkS) (width 0.15))
    (fp_line (start -0.2 0.2) (end -0.2 -0.05) (layer B.SilkS) (width 0.15))
    (fp_line (start -0.4 0) (end -0.2 0.2) (layer B.SilkS) (width 0.15))
    (fp_line (start -0.1 -0.3) (end -0.4 0) (layer B.SilkS) (width 0.15))
    (fp_line (start -0.1 0.3) (end -0.1 -0.3) (layer B.SilkS) (width 0.15))
    (fp_line (start -2.15 1.05) (end 1.45 1.05) (layer B.SilkS) (width 0.15))
    (fp_line (start -2.15 -1.05) (end 1.45 -1.05) (layer B.SilkS) (width 0.15))
    (fp_line (start -1.6 0.8) (end 1.6 0.8) (layer B.Fab) (width 0.15))
    (fp_line (start 1.6 0.8) (end 1.6 -0.8) (layer B.Fab) (width 0.15))
    (fp_line (start 1.6 -0.8) (end -1.6 -0.8) (layer B.Fab) (width 0.15))
    (fp_line (start -1.6 -0.8) (end -1.6 0.8) (layer B.Fab) (width 0.15))
    (fp_line (start 0 0.5) (end 0 -0.5) (layer B.Fab) (width 0.15))
    (fp_line (start 0 -0.5) (end -0.5 0) (layer B.Fab) (width 0.15))
    (fp_line (start -0.5 0) (end 0 0.5) (layer B.Fab) (width 0.15))
    (fp_line (start -0.5 0.5) (end -0.5 -0.5) (layer B.Fab) (width 0.15))
    (pad 1 smd rect (at -1.41986 0) (size 1.59766 1.80086) (layers B.Cu B.Paste B.Mask)
      (net 25 "Net-(D11-Pad1)"))
    (pad 2 smd rect (at 1.41986 0) (size 1.59766 1.80086) (layers B.Cu B.Paste B.Mask)
      (net 5 "Net-(D4-Pad2)"))
    (model LEDs.3dshapes/LED_1206.wrl
      (at (xyz 0 0 0))
      (scale (xyz 1 1 1))
      (rotate (xyz 0 0 180))
    )
  )

  (module LEDs:LED_1206 (layer F.Cu) (tedit 57ABE035) (tstamp 5841732D)
    (at 225.8 130 180)
    (descr "LED 1206 smd package")
    (tags "LED1206 SMD")
    (path /584918CF)
    (attr smd)
    (fp_text reference D5 (at 0 -2 180) (layer F.SilkS)
      (effects (font (size 1 1) (thickness 0.15)))
    )
    (fp_text value LED (at 0 2 180) (layer F.Fab)
      (effects (font (size 1 1) (thickness 0.15)))
    )
    (fp_line (start 2.5 1.25) (end 2.5 -1.25) (layer F.CrtYd) (width 0.05))
    (fp_line (start -2.5 1.25) (end 2.5 1.25) (layer F.CrtYd) (width 0.05))
    (fp_line (start -2.5 -1.25) (end -2.5 1.25) (layer F.CrtYd) (width 0.05))
    (fp_line (start 2.5 -1.25) (end -2.5 -1.25) (layer F.CrtYd) (width 0.05))
    (fp_line (start 0 0.5) (end -0.5 0) (layer F.SilkS) (width 0.15))
    (fp_line (start 0 -0.5) (end 0 0.5) (layer F.SilkS) (width 0.15))
    (fp_line (start -0.5 0) (end 0 -0.5) (layer F.SilkS) (width 0.15))
    (fp_line (start 0 0) (end 0.5 0) (layer F.SilkS) (width 0.15))
    (fp_line (start -0.5 -0.5) (end -0.5 0.5) (layer F.SilkS) (width 0.15))
    (fp_line (start -0.2 0.05) (end -0.25 0) (layer F.SilkS) (width 0.15))
    (fp_line (start -0.2 -0.2) (end -0.2 0.05) (layer F.SilkS) (width 0.15))
    (fp_line (start -0.4 0) (end -0.2 -0.2) (layer F.SilkS) (width 0.15))
    (fp_line (start -0.1 0.3) (end -0.4 0) (layer F.SilkS) (width 0.15))
    (fp_line (start -0.1 -0.3) (end -0.1 0.3) (layer F.SilkS) (width 0.15))
    (fp_line (start -2.15 -1.05) (end 1.45 -1.05) (layer F.SilkS) (width 0.15))
    (fp_line (start -2.15 1.05) (end 1.45 1.05) (layer F.SilkS) (width 0.15))
    (fp_line (start -1.6 -0.8) (end 1.6 -0.8) (layer F.Fab) (width 0.15))
    (fp_line (start 1.6 -0.8) (end 1.6 0.8) (layer F.Fab) (width 0.15))
    (fp_line (start 1.6 0.8) (end -1.6 0.8) (layer F.Fab) (width 0.15))
    (fp_line (start -1.6 0.8) (end -1.6 -0.8) (layer F.Fab) (width 0.15))
    (fp_line (start 0 -0.5) (end 0 0.5) (layer F.Fab) (width 0.15))
    (fp_line (start 0 0.5) (end -0.5 0) (layer F.Fab) (width 0.15))
    (fp_line (start -0.5 0) (end 0 -0.5) (layer F.Fab) (width 0.15))
    (fp_line (start -0.5 -0.5) (end -0.5 0.5) (layer F.Fab) (width 0.15))
    (pad 1 smd rect (at -1.41986 0) (size 1.59766 1.80086) (layers F.Cu F.Paste F.Mask)
      (net 25 "Net-(D11-Pad1)"))
    (pad 2 smd rect (at 1.41986 0) (size 1.59766 1.80086) (layers F.Cu F.Paste F.Mask)
      (net 6 "Net-(D5-Pad2)"))
    (model LEDs.3dshapes/LED_1206.wrl
      (at (xyz 0 0 0))
      (scale (xyz 1 1 1))
      (rotate (xyz 0 0 180))
    )
  )

  (module LEDs:LED_1206 (layer B.Cu) (tedit 57ABE035) (tstamp 58417333)
    (at 208 70.4 180)
    (descr "LED 1206 smd package")
    (tags "LED1206 SMD")
    (path /584918DB)
    (attr smd)
    (fp_text reference D6 (at 0 2 180) (layer B.SilkS)
      (effects (font (size 1 1) (thickness 0.15)) (justify mirror))
    )
    (fp_text value LED (at 0 -2 180) (layer B.Fab)
      (effects (font (size 1 1) (thickness 0.15)) (justify mirror))
    )
    (fp_line (start 2.5 -1.25) (end 2.5 1.25) (layer B.CrtYd) (width 0.05))
    (fp_line (start -2.5 -1.25) (end 2.5 -1.25) (layer B.CrtYd) (width 0.05))
    (fp_line (start -2.5 1.25) (end -2.5 -1.25) (layer B.CrtYd) (width 0.05))
    (fp_line (start 2.5 1.25) (end -2.5 1.25) (layer B.CrtYd) (width 0.05))
    (fp_line (start 0 -0.5) (end -0.5 0) (layer B.SilkS) (width 0.15))
    (fp_line (start 0 0.5) (end 0 -0.5) (layer B.SilkS) (width 0.15))
    (fp_line (start -0.5 0) (end 0 0.5) (layer B.SilkS) (width 0.15))
    (fp_line (start 0 0) (end 0.5 0) (layer B.SilkS) (width 0.15))
    (fp_line (start -0.5 0.5) (end -0.5 -0.5) (layer B.SilkS) (width 0.15))
    (fp_line (start -0.2 -0.05) (end -0.25 0) (layer B.SilkS) (width 0.15))
    (fp_line (start -0.2 0.2) (end -0.2 -0.05) (layer B.SilkS) (width 0.15))
    (fp_line (start -0.4 0) (end -0.2 0.2) (layer B.SilkS) (width 0.15))
    (fp_line (start -0.1 -0.3) (end -0.4 0) (layer B.SilkS) (width 0.15))
    (fp_line (start -0.1 0.3) (end -0.1 -0.3) (layer B.SilkS) (width 0.15))
    (fp_line (start -2.15 1.05) (end 1.45 1.05) (layer B.SilkS) (width 0.15))
    (fp_line (start -2.15 -1.05) (end 1.45 -1.05) (layer B.SilkS) (width 0.15))
    (fp_line (start -1.6 0.8) (end 1.6 0.8) (layer B.Fab) (width 0.15))
    (fp_line (start 1.6 0.8) (end 1.6 -0.8) (layer B.Fab) (width 0.15))
    (fp_line (start 1.6 -0.8) (end -1.6 -0.8) (layer B.Fab) (width 0.15))
    (fp_line (start -1.6 -0.8) (end -1.6 0.8) (layer B.Fab) (width 0.15))
    (fp_line (start 0 0.5) (end 0 -0.5) (layer B.Fab) (width 0.15))
    (fp_line (start 0 -0.5) (end -0.5 0) (layer B.Fab) (width 0.15))
    (fp_line (start -0.5 0) (end 0 0.5) (layer B.Fab) (width 0.15))
    (fp_line (start -0.5 0.5) (end -0.5 -0.5) (layer B.Fab) (width 0.15))
    (pad 1 smd rect (at -1.41986 0) (size 1.59766 1.80086) (layers B.Cu B.Paste B.Mask)
      (net 25 "Net-(D11-Pad1)"))
    (pad 2 smd rect (at 1.41986 0) (size 1.59766 1.80086) (layers B.Cu B.Paste B.Mask)
      (net 7 "Net-(D6-Pad2)"))
    (model LEDs.3dshapes/LED_1206.wrl
      (at (xyz 0 0 0))
      (scale (xyz 1 1 1))
      (rotate (xyz 0 0 180))
    )
  )

  (module LEDs:LED_1206 (layer F.Cu) (tedit 57ABE035) (tstamp 58417339)
    (at 173.9 128)
    (descr "LED 1206 smd package")
    (tags "LED1206 SMD")
    (path /584919BB)
    (attr smd)
    (fp_text reference D7 (at 0 -2) (layer F.SilkS)
      (effects (font (size 1 1) (thickness 0.15)))
    )
    (fp_text value LED (at 0 2) (layer F.Fab)
      (effects (font (size 1 1) (thickness 0.15)))
    )
    (fp_line (start 2.5 1.25) (end 2.5 -1.25) (layer F.CrtYd) (width 0.05))
    (fp_line (start -2.5 1.25) (end 2.5 1.25) (layer F.CrtYd) (width 0.05))
    (fp_line (start -2.5 -1.25) (end -2.5 1.25) (layer F.CrtYd) (width 0.05))
    (fp_line (start 2.5 -1.25) (end -2.5 -1.25) (layer F.CrtYd) (width 0.05))
    (fp_line (start 0 0.5) (end -0.5 0) (layer F.SilkS) (width 0.15))
    (fp_line (start 0 -0.5) (end 0 0.5) (layer F.SilkS) (width 0.15))
    (fp_line (start -0.5 0) (end 0 -0.5) (layer F.SilkS) (width 0.15))
    (fp_line (start 0 0) (end 0.5 0) (layer F.SilkS) (width 0.15))
    (fp_line (start -0.5 -0.5) (end -0.5 0.5) (layer F.SilkS) (width 0.15))
    (fp_line (start -0.2 0.05) (end -0.25 0) (layer F.SilkS) (width 0.15))
    (fp_line (start -0.2 -0.2) (end -0.2 0.05) (layer F.SilkS) (width 0.15))
    (fp_line (start -0.4 0) (end -0.2 -0.2) (layer F.SilkS) (width 0.15))
    (fp_line (start -0.1 0.3) (end -0.4 0) (layer F.SilkS) (width 0.15))
    (fp_line (start -0.1 -0.3) (end -0.1 0.3) (layer F.SilkS) (width 0.15))
    (fp_line (start -2.15 -1.05) (end 1.45 -1.05) (layer F.SilkS) (width 0.15))
    (fp_line (start -2.15 1.05) (end 1.45 1.05) (layer F.SilkS) (width 0.15))
    (fp_line (start -1.6 -0.8) (end 1.6 -0.8) (layer F.Fab) (width 0.15))
    (fp_line (start 1.6 -0.8) (end 1.6 0.8) (layer F.Fab) (width 0.15))
    (fp_line (start 1.6 0.8) (end -1.6 0.8) (layer F.Fab) (width 0.15))
    (fp_line (start -1.6 0.8) (end -1.6 -0.8) (layer F.Fab) (width 0.15))
    (fp_line (start 0 -0.5) (end 0 0.5) (layer F.Fab) (width 0.15))
    (fp_line (start 0 0.5) (end -0.5 0) (layer F.Fab) (width 0.15))
    (fp_line (start -0.5 0) (end 0 -0.5) (layer F.Fab) (width 0.15))
    (fp_line (start -0.5 -0.5) (end -0.5 0.5) (layer F.Fab) (width 0.15))
    (pad 1 smd rect (at -1.41986 0 180) (size 1.59766 1.80086) (layers F.Cu F.Paste F.Mask)
      (net 26 "Net-(D12-Pad1)"))
    (pad 2 smd rect (at 1.41986 0 180) (size 1.59766 1.80086) (layers F.Cu F.Paste F.Mask)
      (net 8 "Net-(D7-Pad2)"))
    (model LEDs.3dshapes/LED_1206.wrl
      (at (xyz 0 0 0))
      (scale (xyz 1 1 1))
      (rotate (xyz 0 0 180))
    )
  )

  (module LEDs:LED_1206 (layer B.Cu) (tedit 57ABE035) (tstamp 5841733F)
    (at 190.4 70)
    (descr "LED 1206 smd package")
    (tags "LED1206 SMD")
    (path /584919C7)
    (attr smd)
    (fp_text reference D8 (at 0 2) (layer B.SilkS)
      (effects (font (size 1 1) (thickness 0.15)) (justify mirror))
    )
    (fp_text value LED (at 0 -2) (layer B.Fab)
      (effects (font (size 1 1) (thickness 0.15)) (justify mirror))
    )
    (fp_line (start 2.5 -1.25) (end 2.5 1.25) (layer B.CrtYd) (width 0.05))
    (fp_line (start -2.5 -1.25) (end 2.5 -1.25) (layer B.CrtYd) (width 0.05))
    (fp_line (start -2.5 1.25) (end -2.5 -1.25) (layer B.CrtYd) (width 0.05))
    (fp_line (start 2.5 1.25) (end -2.5 1.25) (layer B.CrtYd) (width 0.05))
    (fp_line (start 0 -0.5) (end -0.5 0) (layer B.SilkS) (width 0.15))
    (fp_line (start 0 0.5) (end 0 -0.5) (layer B.SilkS) (width 0.15))
    (fp_line (start -0.5 0) (end 0 0.5) (layer B.SilkS) (width 0.15))
    (fp_line (start 0 0) (end 0.5 0) (layer B.SilkS) (width 0.15))
    (fp_line (start -0.5 0.5) (end -0.5 -0.5) (layer B.SilkS) (width 0.15))
    (fp_line (start -0.2 -0.05) (end -0.25 0) (layer B.SilkS) (width 0.15))
    (fp_line (start -0.2 0.2) (end -0.2 -0.05) (layer B.SilkS) (width 0.15))
    (fp_line (start -0.4 0) (end -0.2 0.2) (layer B.SilkS) (width 0.15))
    (fp_line (start -0.1 -0.3) (end -0.4 0) (layer B.SilkS) (width 0.15))
    (fp_line (start -0.1 0.3) (end -0.1 -0.3) (layer B.SilkS) (width 0.15))
    (fp_line (start -2.15 1.05) (end 1.45 1.05) (layer B.SilkS) (width 0.15))
    (fp_line (start -2.15 -1.05) (end 1.45 -1.05) (layer B.SilkS) (width 0.15))
    (fp_line (start -1.6 0.8) (end 1.6 0.8) (layer B.Fab) (width 0.15))
    (fp_line (start 1.6 0.8) (end 1.6 -0.8) (layer B.Fab) (width 0.15))
    (fp_line (start 1.6 -0.8) (end -1.6 -0.8) (layer B.Fab) (width 0.15))
    (fp_line (start -1.6 -0.8) (end -1.6 0.8) (layer B.Fab) (width 0.15))
    (fp_line (start 0 0.5) (end 0 -0.5) (layer B.Fab) (width 0.15))
    (fp_line (start 0 -0.5) (end -0.5 0) (layer B.Fab) (width 0.15))
    (fp_line (start -0.5 0) (end 0 0.5) (layer B.Fab) (width 0.15))
    (fp_line (start -0.5 0.5) (end -0.5 -0.5) (layer B.Fab) (width 0.15))
    (pad 1 smd rect (at -1.41986 0 180) (size 1.59766 1.80086) (layers B.Cu B.Paste B.Mask)
      (net 26 "Net-(D12-Pad1)"))
    (pad 2 smd rect (at 1.41986 0 180) (size 1.59766 1.80086) (layers B.Cu B.Paste B.Mask)
      (net 9 "Net-(D8-Pad2)"))
    (model LEDs.3dshapes/LED_1206.wrl
      (at (xyz 0 0 0))
      (scale (xyz 1 1 1))
      (rotate (xyz 0 0 180))
    )
  )

  (module LEDs:LED_1206 (layer F.Cu) (tedit 57ABE035) (tstamp 58417345)
    (at 208 70.4 180)
    (descr "LED 1206 smd package")
    (tags "LED1206 SMD")
    (path /584919D3)
    (attr smd)
    (fp_text reference D9 (at 0 -2 180) (layer F.SilkS)
      (effects (font (size 1 1) (thickness 0.15)))
    )
    (fp_text value LED (at 0 2 180) (layer F.Fab)
      (effects (font (size 1 1) (thickness 0.15)))
    )
    (fp_line (start -0.5 -0.5) (end -0.5 0.5) (layer F.Fab) (width 0.15))
    (fp_line (start -0.5 0) (end 0 -0.5) (layer F.Fab) (width 0.15))
    (fp_line (start 0 0.5) (end -0.5 0) (layer F.Fab) (width 0.15))
    (fp_line (start 0 -0.5) (end 0 0.5) (layer F.Fab) (width 0.15))
    (fp_line (start -1.6 0.8) (end -1.6 -0.8) (layer F.Fab) (width 0.15))
    (fp_line (start 1.6 0.8) (end -1.6 0.8) (layer F.Fab) (width 0.15))
    (fp_line (start 1.6 -0.8) (end 1.6 0.8) (layer F.Fab) (width 0.15))
    (fp_line (start -1.6 -0.8) (end 1.6 -0.8) (layer F.Fab) (width 0.15))
    (fp_line (start -2.15 1.05) (end 1.45 1.05) (layer F.SilkS) (width 0.15))
    (fp_line (start -2.15 -1.05) (end 1.45 -1.05) (layer F.SilkS) (width 0.15))
    (fp_line (start -0.1 -0.3) (end -0.1 0.3) (layer F.SilkS) (width 0.15))
    (fp_line (start -0.1 0.3) (end -0.4 0) (layer F.SilkS) (width 0.15))
    (fp_line (start -0.4 0) (end -0.2 -0.2) (layer F.SilkS) (width 0.15))
    (fp_line (start -0.2 -0.2) (end -0.2 0.05) (layer F.SilkS) (width 0.15))
    (fp_line (start -0.2 0.05) (end -0.25 0) (layer F.SilkS) (width 0.15))
    (fp_line (start -0.5 -0.5) (end -0.5 0.5) (layer F.SilkS) (width 0.15))
    (fp_line (start 0 0) (end 0.5 0) (layer F.SilkS) (width 0.15))
    (fp_line (start -0.5 0) (end 0 -0.5) (layer F.SilkS) (width 0.15))
    (fp_line (start 0 -0.5) (end 0 0.5) (layer F.SilkS) (width 0.15))
    (fp_line (start 0 0.5) (end -0.5 0) (layer F.SilkS) (width 0.15))
    (fp_line (start 2.5 -1.25) (end -2.5 -1.25) (layer F.CrtYd) (width 0.05))
    (fp_line (start -2.5 -1.25) (end -2.5 1.25) (layer F.CrtYd) (width 0.05))
    (fp_line (start -2.5 1.25) (end 2.5 1.25) (layer F.CrtYd) (width 0.05))
    (fp_line (start 2.5 1.25) (end 2.5 -1.25) (layer F.CrtYd) (width 0.05))
    (pad 2 smd rect (at 1.41986 0) (size 1.59766 1.80086) (layers F.Cu F.Paste F.Mask)
      (net 10 "Net-(D9-Pad2)"))
    (pad 1 smd rect (at -1.41986 0) (size 1.59766 1.80086) (layers F.Cu F.Paste F.Mask)
      (net 26 "Net-(D12-Pad1)"))
    (model LEDs.3dshapes/LED_1206.wrl
      (at (xyz 0 0 0))
      (scale (xyz 1 1 1))
      (rotate (xyz 0 0 180))
    )
  )

  (module LEDs:LED_1206 (layer B.Cu) (tedit 57ABE035) (tstamp 5841734B)
    (at 225.8 130 180)
    (descr "LED 1206 smd package")
    (tags "LED1206 SMD")
    (path /58493583)
    (attr smd)
    (fp_text reference D10 (at 0 2 180) (layer B.SilkS)
      (effects (font (size 1 1) (thickness 0.15)) (justify mirror))
    )
    (fp_text value LED (at 0 -2 180) (layer B.Fab)
      (effects (font (size 1 1) (thickness 0.15)) (justify mirror))
    )
    (fp_line (start -0.5 0.5) (end -0.5 -0.5) (layer B.Fab) (width 0.15))
    (fp_line (start -0.5 0) (end 0 0.5) (layer B.Fab) (width 0.15))
    (fp_line (start 0 -0.5) (end -0.5 0) (layer B.Fab) (width 0.15))
    (fp_line (start 0 0.5) (end 0 -0.5) (layer B.Fab) (width 0.15))
    (fp_line (start -1.6 -0.8) (end -1.6 0.8) (layer B.Fab) (width 0.15))
    (fp_line (start 1.6 -0.8) (end -1.6 -0.8) (layer B.Fab) (width 0.15))
    (fp_line (start 1.6 0.8) (end 1.6 -0.8) (layer B.Fab) (width 0.15))
    (fp_line (start -1.6 0.8) (end 1.6 0.8) (layer B.Fab) (width 0.15))
    (fp_line (start -2.15 -1.05) (end 1.45 -1.05) (layer B.SilkS) (width 0.15))
    (fp_line (start -2.15 1.05) (end 1.45 1.05) (layer B.SilkS) (width 0.15))
    (fp_line (start -0.1 0.3) (end -0.1 -0.3) (layer B.SilkS) (width 0.15))
    (fp_line (start -0.1 -0.3) (end -0.4 0) (layer B.SilkS) (width 0.15))
    (fp_line (start -0.4 0) (end -0.2 0.2) (layer B.SilkS) (width 0.15))
    (fp_line (start -0.2 0.2) (end -0.2 -0.05) (layer B.SilkS) (width 0.15))
    (fp_line (start -0.2 -0.05) (end -0.25 0) (layer B.SilkS) (width 0.15))
    (fp_line (start -0.5 0.5) (end -0.5 -0.5) (layer B.SilkS) (width 0.15))
    (fp_line (start 0 0) (end 0.5 0) (layer B.SilkS) (width 0.15))
    (fp_line (start -0.5 0) (end 0 0.5) (layer B.SilkS) (width 0.15))
    (fp_line (start 0 0.5) (end 0 -0.5) (layer B.SilkS) (width 0.15))
    (fp_line (start 0 -0.5) (end -0.5 0) (layer B.SilkS) (width 0.15))
    (fp_line (start 2.5 1.25) (end -2.5 1.25) (layer B.CrtYd) (width 0.05))
    (fp_line (start -2.5 1.25) (end -2.5 -1.25) (layer B.CrtYd) (width 0.05))
    (fp_line (start -2.5 -1.25) (end 2.5 -1.25) (layer B.CrtYd) (width 0.05))
    (fp_line (start 2.5 -1.25) (end 2.5 1.25) (layer B.CrtYd) (width 0.05))
    (pad 2 smd rect (at 1.41986 0) (size 1.59766 1.80086) (layers B.Cu B.Paste B.Mask)
      (net 11 "Net-(D10-Pad2)"))
    (pad 1 smd rect (at -1.41986 0) (size 1.59766 1.80086) (layers B.Cu B.Paste B.Mask)
      (net 1 "Net-(D1-Pad1)"))
    (model LEDs.3dshapes/LED_1206.wrl
      (at (xyz 0 0 0))
      (scale (xyz 1 1 1))
      (rotate (xyz 0 0 180))
    )
  )

  (module LEDs:LED_1206 (layer F.Cu) (tedit 57ABE035) (tstamp 58417351)
    (at 181.4 114.3)
    (descr "LED 1206 smd package")
    (tags "LED1206 SMD")
    (path /584936B5)
    (attr smd)
    (fp_text reference D11 (at 0 -2) (layer F.SilkS)
      (effects (font (size 1 1) (thickness 0.15)))
    )
    (fp_text value LED (at 0 2) (layer F.Fab)
      (effects (font (size 1 1) (thickness 0.15)))
    )
    (fp_line (start -0.5 -0.5) (end -0.5 0.5) (layer F.Fab) (width 0.15))
    (fp_line (start -0.5 0) (end 0 -0.5) (layer F.Fab) (width 0.15))
    (fp_line (start 0 0.5) (end -0.5 0) (layer F.Fab) (width 0.15))
    (fp_line (start 0 -0.5) (end 0 0.5) (layer F.Fab) (width 0.15))
    (fp_line (start -1.6 0.8) (end -1.6 -0.8) (layer F.Fab) (width 0.15))
    (fp_line (start 1.6 0.8) (end -1.6 0.8) (layer F.Fab) (width 0.15))
    (fp_line (start 1.6 -0.8) (end 1.6 0.8) (layer F.Fab) (width 0.15))
    (fp_line (start -1.6 -0.8) (end 1.6 -0.8) (layer F.Fab) (width 0.15))
    (fp_line (start -2.15 1.05) (end 1.45 1.05) (layer F.SilkS) (width 0.15))
    (fp_line (start -2.15 -1.05) (end 1.45 -1.05) (layer F.SilkS) (width 0.15))
    (fp_line (start -0.1 -0.3) (end -0.1 0.3) (layer F.SilkS) (width 0.15))
    (fp_line (start -0.1 0.3) (end -0.4 0) (layer F.SilkS) (width 0.15))
    (fp_line (start -0.4 0) (end -0.2 -0.2) (layer F.SilkS) (width 0.15))
    (fp_line (start -0.2 -0.2) (end -0.2 0.05) (layer F.SilkS) (width 0.15))
    (fp_line (start -0.2 0.05) (end -0.25 0) (layer F.SilkS) (width 0.15))
    (fp_line (start -0.5 -0.5) (end -0.5 0.5) (layer F.SilkS) (width 0.15))
    (fp_line (start 0 0) (end 0.5 0) (layer F.SilkS) (width 0.15))
    (fp_line (start -0.5 0) (end 0 -0.5) (layer F.SilkS) (width 0.15))
    (fp_line (start 0 -0.5) (end 0 0.5) (layer F.SilkS) (width 0.15))
    (fp_line (start 0 0.5) (end -0.5 0) (layer F.SilkS) (width 0.15))
    (fp_line (start 2.5 -1.25) (end -2.5 -1.25) (layer F.CrtYd) (width 0.05))
    (fp_line (start -2.5 -1.25) (end -2.5 1.25) (layer F.CrtYd) (width 0.05))
    (fp_line (start -2.5 1.25) (end 2.5 1.25) (layer F.CrtYd) (width 0.05))
    (fp_line (start 2.5 1.25) (end 2.5 -1.25) (layer F.CrtYd) (width 0.05))
    (pad 2 smd rect (at 1.41986 0 180) (size 1.59766 1.80086) (layers F.Cu F.Paste F.Mask)
      (net 12 "Net-(D11-Pad2)"))
    (pad 1 smd rect (at -1.41986 0 180) (size 1.59766 1.80086) (layers F.Cu F.Paste F.Mask)
      (net 25 "Net-(D11-Pad1)"))
    (model LEDs.3dshapes/LED_1206.wrl
      (at (xyz 0 0 0))
      (scale (xyz 1 1 1))
      (rotate (xyz 0 0 180))
    )
  )

  (module LEDs:LED_1206 (layer F.Cu) (tedit 57ABE035) (tstamp 58417357)
    (at 181 95)
    (descr "LED 1206 smd package")
    (tags "LED1206 SMD")
    (path /584937D1)
    (attr smd)
    (fp_text reference D12 (at 0 -2) (layer F.SilkS)
      (effects (font (size 1 1) (thickness 0.15)))
    )
    (fp_text value LED (at 0 2) (layer F.Fab)
      (effects (font (size 1 1) (thickness 0.15)))
    )
    (fp_line (start -0.5 -0.5) (end -0.5 0.5) (layer F.Fab) (width 0.15))
    (fp_line (start -0.5 0) (end 0 -0.5) (layer F.Fab) (width 0.15))
    (fp_line (start 0 0.5) (end -0.5 0) (layer F.Fab) (width 0.15))
    (fp_line (start 0 -0.5) (end 0 0.5) (layer F.Fab) (width 0.15))
    (fp_line (start -1.6 0.8) (end -1.6 -0.8) (layer F.Fab) (width 0.15))
    (fp_line (start 1.6 0.8) (end -1.6 0.8) (layer F.Fab) (width 0.15))
    (fp_line (start 1.6 -0.8) (end 1.6 0.8) (layer F.Fab) (width 0.15))
    (fp_line (start -1.6 -0.8) (end 1.6 -0.8) (layer F.Fab) (width 0.15))
    (fp_line (start -2.15 1.05) (end 1.45 1.05) (layer F.SilkS) (width 0.15))
    (fp_line (start -2.15 -1.05) (end 1.45 -1.05) (layer F.SilkS) (width 0.15))
    (fp_line (start -0.1 -0.3) (end -0.1 0.3) (layer F.SilkS) (width 0.15))
    (fp_line (start -0.1 0.3) (end -0.4 0) (layer F.SilkS) (width 0.15))
    (fp_line (start -0.4 0) (end -0.2 -0.2) (layer F.SilkS) (width 0.15))
    (fp_line (start -0.2 -0.2) (end -0.2 0.05) (layer F.SilkS) (width 0.15))
    (fp_line (start -0.2 0.05) (end -0.25 0) (layer F.SilkS) (width 0.15))
    (fp_line (start -0.5 -0.5) (end -0.5 0.5) (layer F.SilkS) (width 0.15))
    (fp_line (start 0 0) (end 0.5 0) (layer F.SilkS) (width 0.15))
    (fp_line (start -0.5 0) (end 0 -0.5) (layer F.SilkS) (width 0.15))
    (fp_line (start 0 -0.5) (end 0 0.5) (layer F.SilkS) (width 0.15))
    (fp_line (start 0 0.5) (end -0.5 0) (layer F.SilkS) (width 0.15))
    (fp_line (start 2.5 -1.25) (end -2.5 -1.25) (layer F.CrtYd) (width 0.05))
    (fp_line (start -2.5 -1.25) (end -2.5 1.25) (layer F.CrtYd) (width 0.05))
    (fp_line (start -2.5 1.25) (end 2.5 1.25) (layer F.CrtYd) (width 0.05))
    (fp_line (start 2.5 1.25) (end 2.5 -1.25) (layer F.CrtYd) (width 0.05))
    (pad 2 smd rect (at 1.41986 0 180) (size 1.59766 1.80086) (layers F.Cu F.Paste F.Mask)
      (net 13 "Net-(D12-Pad2)"))
    (pad 1 smd rect (at -1.41986 0 180) (size 1.59766 1.80086) (layers F.Cu F.Paste F.Mask)
      (net 26 "Net-(D12-Pad1)"))
    (model LEDs.3dshapes/LED_1206.wrl
      (at (xyz 0 0 0))
      (scale (xyz 1 1 1))
      (rotate (xyz 0 0 180))
    )
  )

  (module LEDs:LED_1206 (layer F.Cu) (tedit 57ABE035) (tstamp 5841735D)
    (at 217.2 114.8 180)
    (descr "LED 1206 smd package")
    (tags "LED1206 SMD")
    (path /584943D7)
    (attr smd)
    (fp_text reference D13 (at 0 -2 180) (layer F.SilkS)
      (effects (font (size 1 1) (thickness 0.15)))
    )
    (fp_text value LED (at 0 2 180) (layer F.Fab)
      (effects (font (size 1 1) (thickness 0.15)))
    )
    (fp_line (start -0.5 -0.5) (end -0.5 0.5) (layer F.Fab) (width 0.15))
    (fp_line (start -0.5 0) (end 0 -0.5) (layer F.Fab) (width 0.15))
    (fp_line (start 0 0.5) (end -0.5 0) (layer F.Fab) (width 0.15))
    (fp_line (start 0 -0.5) (end 0 0.5) (layer F.Fab) (width 0.15))
    (fp_line (start -1.6 0.8) (end -1.6 -0.8) (layer F.Fab) (width 0.15))
    (fp_line (start 1.6 0.8) (end -1.6 0.8) (layer F.Fab) (width 0.15))
    (fp_line (start 1.6 -0.8) (end 1.6 0.8) (layer F.Fab) (width 0.15))
    (fp_line (start -1.6 -0.8) (end 1.6 -0.8) (layer F.Fab) (width 0.15))
    (fp_line (start -2.15 1.05) (end 1.45 1.05) (layer F.SilkS) (width 0.15))
    (fp_line (start -2.15 -1.05) (end 1.45 -1.05) (layer F.SilkS) (width 0.15))
    (fp_line (start -0.1 -0.3) (end -0.1 0.3) (layer F.SilkS) (width 0.15))
    (fp_line (start -0.1 0.3) (end -0.4 0) (layer F.SilkS) (width 0.15))
    (fp_line (start -0.4 0) (end -0.2 -0.2) (layer F.SilkS) (width 0.15))
    (fp_line (start -0.2 -0.2) (end -0.2 0.05) (layer F.SilkS) (width 0.15))
    (fp_line (start -0.2 0.05) (end -0.25 0) (layer F.SilkS) (width 0.15))
    (fp_line (start -0.5 -0.5) (end -0.5 0.5) (layer F.SilkS) (width 0.15))
    (fp_line (start 0 0) (end 0.5 0) (layer F.SilkS) (width 0.15))
    (fp_line (start -0.5 0) (end 0 -0.5) (layer F.SilkS) (width 0.15))
    (fp_line (start 0 -0.5) (end 0 0.5) (layer F.SilkS) (width 0.15))
    (fp_line (start 0 0.5) (end -0.5 0) (layer F.SilkS) (width 0.15))
    (fp_line (start 2.5 -1.25) (end -2.5 -1.25) (layer F.CrtYd) (width 0.05))
    (fp_line (start -2.5 -1.25) (end -2.5 1.25) (layer F.CrtYd) (width 0.05))
    (fp_line (start -2.5 1.25) (end 2.5 1.25) (layer F.CrtYd) (width 0.05))
    (fp_line (start 2.5 1.25) (end 2.5 -1.25) (layer F.CrtYd) (width 0.05))
    (pad 2 smd rect (at 1.41986 0) (size 1.59766 1.80086) (layers F.Cu F.Paste F.Mask)
      (net 14 "Net-(D13-Pad2)"))
    (pad 1 smd rect (at -1.41986 0) (size 1.59766 1.80086) (layers F.Cu F.Paste F.Mask)
      (net 27 "Net-(D13-Pad1)"))
    (model LEDs.3dshapes/LED_1206.wrl
      (at (xyz 0 0 0))
      (scale (xyz 1 1 1))
      (rotate (xyz 0 0 180))
    )
  )

  (module LEDs:LED_1206 (layer B.Cu) (tedit 57ABE035) (tstamp 58417363)
    (at 217 95 180)
    (descr "LED 1206 smd package")
    (tags "LED1206 SMD")
    (path /584943B3)
    (attr smd)
    (fp_text reference D14 (at 0 2 180) (layer B.SilkS)
      (effects (font (size 1 1) (thickness 0.15)) (justify mirror))
    )
    (fp_text value LED (at 0 -2 180) (layer B.Fab)
      (effects (font (size 1 1) (thickness 0.15)) (justify mirror))
    )
    (fp_line (start -0.5 0.5) (end -0.5 -0.5) (layer B.Fab) (width 0.15))
    (fp_line (start -0.5 0) (end 0 0.5) (layer B.Fab) (width 0.15))
    (fp_line (start 0 -0.5) (end -0.5 0) (layer B.Fab) (width 0.15))
    (fp_line (start 0 0.5) (end 0 -0.5) (layer B.Fab) (width 0.15))
    (fp_line (start -1.6 -0.8) (end -1.6 0.8) (layer B.Fab) (width 0.15))
    (fp_line (start 1.6 -0.8) (end -1.6 -0.8) (layer B.Fab) (width 0.15))
    (fp_line (start 1.6 0.8) (end 1.6 -0.8) (layer B.Fab) (width 0.15))
    (fp_line (start -1.6 0.8) (end 1.6 0.8) (layer B.Fab) (width 0.15))
    (fp_line (start -2.15 -1.05) (end 1.45 -1.05) (layer B.SilkS) (width 0.15))
    (fp_line (start -2.15 1.05) (end 1.45 1.05) (layer B.SilkS) (width 0.15))
    (fp_line (start -0.1 0.3) (end -0.1 -0.3) (layer B.SilkS) (width 0.15))
    (fp_line (start -0.1 -0.3) (end -0.4 0) (layer B.SilkS) (width 0.15))
    (fp_line (start -0.4 0) (end -0.2 0.2) (layer B.SilkS) (width 0.15))
    (fp_line (start -0.2 0.2) (end -0.2 -0.05) (layer B.SilkS) (width 0.15))
    (fp_line (start -0.2 -0.05) (end -0.25 0) (layer B.SilkS) (width 0.15))
    (fp_line (start -0.5 0.5) (end -0.5 -0.5) (layer B.SilkS) (width 0.15))
    (fp_line (start 0 0) (end 0.5 0) (layer B.SilkS) (width 0.15))
    (fp_line (start -0.5 0) (end 0 0.5) (layer B.SilkS) (width 0.15))
    (fp_line (start 0 0.5) (end 0 -0.5) (layer B.SilkS) (width 0.15))
    (fp_line (start 0 -0.5) (end -0.5 0) (layer B.SilkS) (width 0.15))
    (fp_line (start 2.5 1.25) (end -2.5 1.25) (layer B.CrtYd) (width 0.05))
    (fp_line (start -2.5 1.25) (end -2.5 -1.25) (layer B.CrtYd) (width 0.05))
    (fp_line (start -2.5 -1.25) (end 2.5 -1.25) (layer B.CrtYd) (width 0.05))
    (fp_line (start 2.5 -1.25) (end 2.5 1.25) (layer B.CrtYd) (width 0.05))
    (pad 2 smd rect (at 1.41986 0) (size 1.59766 1.80086) (layers B.Cu B.Paste B.Mask)
      (net 15 "Net-(D14-Pad2)"))
    (pad 1 smd rect (at -1.41986 0) (size 1.59766 1.80086) (layers B.Cu B.Paste B.Mask)
      (net 27 "Net-(D13-Pad1)"))
    (model LEDs.3dshapes/LED_1206.wrl
      (at (xyz 0 0 0))
      (scale (xyz 1 1 1))
      (rotate (xyz 0 0 180))
    )
  )

  (module LEDs:LED_1206 (layer B.Cu) (tedit 57ABE035) (tstamp 58417369)
    (at 173.9 128)
    (descr "LED 1206 smd package")
    (tags "LED1206 SMD")
    (path /584943BF)
    (attr smd)
    (fp_text reference D15 (at 0 2) (layer B.SilkS)
      (effects (font (size 1 1) (thickness 0.15)) (justify mirror))
    )
    (fp_text value LED (at 0 -2) (layer B.Fab)
      (effects (font (size 1 1) (thickness 0.15)) (justify mirror))
    )
    (fp_line (start 2.5 -1.25) (end 2.5 1.25) (layer B.CrtYd) (width 0.05))
    (fp_line (start -2.5 -1.25) (end 2.5 -1.25) (layer B.CrtYd) (width 0.05))
    (fp_line (start -2.5 1.25) (end -2.5 -1.25) (layer B.CrtYd) (width 0.05))
    (fp_line (start 2.5 1.25) (end -2.5 1.25) (layer B.CrtYd) (width 0.05))
    (fp_line (start 0 -0.5) (end -0.5 0) (layer B.SilkS) (width 0.15))
    (fp_line (start 0 0.5) (end 0 -0.5) (layer B.SilkS) (width 0.15))
    (fp_line (start -0.5 0) (end 0 0.5) (layer B.SilkS) (width 0.15))
    (fp_line (start 0 0) (end 0.5 0) (layer B.SilkS) (width 0.15))
    (fp_line (start -0.5 0.5) (end -0.5 -0.5) (layer B.SilkS) (width 0.15))
    (fp_line (start -0.2 -0.05) (end -0.25 0) (layer B.SilkS) (width 0.15))
    (fp_line (start -0.2 0.2) (end -0.2 -0.05) (layer B.SilkS) (width 0.15))
    (fp_line (start -0.4 0) (end -0.2 0.2) (layer B.SilkS) (width 0.15))
    (fp_line (start -0.1 -0.3) (end -0.4 0) (layer B.SilkS) (width 0.15))
    (fp_line (start -0.1 0.3) (end -0.1 -0.3) (layer B.SilkS) (width 0.15))
    (fp_line (start -2.15 1.05) (end 1.45 1.05) (layer B.SilkS) (width 0.15))
    (fp_line (start -2.15 -1.05) (end 1.45 -1.05) (layer B.SilkS) (width 0.15))
    (fp_line (start -1.6 0.8) (end 1.6 0.8) (layer B.Fab) (width 0.15))
    (fp_line (start 1.6 0.8) (end 1.6 -0.8) (layer B.Fab) (width 0.15))
    (fp_line (start 1.6 -0.8) (end -1.6 -0.8) (layer B.Fab) (width 0.15))
    (fp_line (start -1.6 -0.8) (end -1.6 0.8) (layer B.Fab) (width 0.15))
    (fp_line (start 0 0.5) (end 0 -0.5) (layer B.Fab) (width 0.15))
    (fp_line (start 0 -0.5) (end -0.5 0) (layer B.Fab) (width 0.15))
    (fp_line (start -0.5 0) (end 0 0.5) (layer B.Fab) (width 0.15))
    (fp_line (start -0.5 0.5) (end -0.5 -0.5) (layer B.Fab) (width 0.15))
    (pad 1 smd rect (at -1.41986 0 180) (size 1.59766 1.80086) (layers B.Cu B.Paste B.Mask)
      (net 27 "Net-(D13-Pad1)"))
    (pad 2 smd rect (at 1.41986 0 180) (size 1.59766 1.80086) (layers B.Cu B.Paste B.Mask)
      (net 16 "Net-(D15-Pad2)"))
    (model LEDs.3dshapes/LED_1206.wrl
      (at (xyz 0 0 0))
      (scale (xyz 1 1 1))
      (rotate (xyz 0 0 180))
    )
  )

  (module LEDs:LED_1206 (layer B.Cu) (tedit 57ABE035) (tstamp 5841736F)
    (at 181.4 114.3)
    (descr "LED 1206 smd package")
    (tags "LED1206 SMD")
    (path /584943CB)
    (attr smd)
    (fp_text reference D16 (at 0 2) (layer B.SilkS)
      (effects (font (size 1 1) (thickness 0.15)) (justify mirror))
    )
    (fp_text value LED (at 0 -2) (layer B.Fab)
      (effects (font (size 1 1) (thickness 0.15)) (justify mirror))
    )
    (fp_line (start -0.5 0.5) (end -0.5 -0.5) (layer B.Fab) (width 0.15))
    (fp_line (start -0.5 0) (end 0 0.5) (layer B.Fab) (width 0.15))
    (fp_line (start 0 -0.5) (end -0.5 0) (layer B.Fab) (width 0.15))
    (fp_line (start 0 0.5) (end 0 -0.5) (layer B.Fab) (width 0.15))
    (fp_line (start -1.6 -0.8) (end -1.6 0.8) (layer B.Fab) (width 0.15))
    (fp_line (start 1.6 -0.8) (end -1.6 -0.8) (layer B.Fab) (width 0.15))
    (fp_line (start 1.6 0.8) (end 1.6 -0.8) (layer B.Fab) (width 0.15))
    (fp_line (start -1.6 0.8) (end 1.6 0.8) (layer B.Fab) (width 0.15))
    (fp_line (start -2.15 -1.05) (end 1.45 -1.05) (layer B.SilkS) (width 0.15))
    (fp_line (start -2.15 1.05) (end 1.45 1.05) (layer B.SilkS) (width 0.15))
    (fp_line (start -0.1 0.3) (end -0.1 -0.3) (layer B.SilkS) (width 0.15))
    (fp_line (start -0.1 -0.3) (end -0.4 0) (layer B.SilkS) (width 0.15))
    (fp_line (start -0.4 0) (end -0.2 0.2) (layer B.SilkS) (width 0.15))
    (fp_line (start -0.2 0.2) (end -0.2 -0.05) (layer B.SilkS) (width 0.15))
    (fp_line (start -0.2 -0.05) (end -0.25 0) (layer B.SilkS) (width 0.15))
    (fp_line (start -0.5 0.5) (end -0.5 -0.5) (layer B.SilkS) (width 0.15))
    (fp_line (start 0 0) (end 0.5 0) (layer B.SilkS) (width 0.15))
    (fp_line (start -0.5 0) (end 0 0.5) (layer B.SilkS) (width 0.15))
    (fp_line (start 0 0.5) (end 0 -0.5) (layer B.SilkS) (width 0.15))
    (fp_line (start 0 -0.5) (end -0.5 0) (layer B.SilkS) (width 0.15))
    (fp_line (start 2.5 1.25) (end -2.5 1.25) (layer B.CrtYd) (width 0.05))
    (fp_line (start -2.5 1.25) (end -2.5 -1.25) (layer B.CrtYd) (width 0.05))
    (fp_line (start -2.5 -1.25) (end 2.5 -1.25) (layer B.CrtYd) (width 0.05))
    (fp_line (start 2.5 -1.25) (end 2.5 1.25) (layer B.CrtYd) (width 0.05))
    (pad 2 smd rect (at 1.41986 0 180) (size 1.59766 1.80086) (layers B.Cu B.Paste B.Mask)
      (net 17 "Net-(D16-Pad2)"))
    (pad 1 smd rect (at -1.41986 0 180) (size 1.59766 1.80086) (layers B.Cu B.Paste B.Mask)
      (net 27 "Net-(D13-Pad1)"))
    (model LEDs.3dshapes/LED_1206.wrl
      (at (xyz 0 0 0))
      (scale (xyz 1 1 1))
      (rotate (xyz 0 0 180))
    )
  )

  (module Buzzers_Beepers:BUZZER (layer F.Cu) (tedit 0) (tstamp 58417375)
    (at 177.8 143.1)
    (path /5849658F)
    (fp_text reference LS1 (at 0.24892 -1.75006) (layer F.SilkS)
      (effects (font (size 1 1) (thickness 0.15)))
    )
    (fp_text value Speaker (at 0 1.50114) (layer F.Fab)
      (effects (font (size 1 1) (thickness 0.15)))
    )
    (fp_circle (center 0 0) (end 8.001 0.24892) (layer F.SilkS) (width 0.15))
    (pad 1 thru_hole circle (at -5.08 0) (size 2.49936 2.49936) (drill 1.00076) (layers *.Cu *.Mask)
      (net 18 "Net-(LS1-Pad1)"))
    (pad 2 thru_hole circle (at 5.08 0) (size 2.49936 2.49936) (drill 1.00076) (layers *.Cu *.Mask)
      (net 19 GND))
  )

  (module Pin_Headers:Pin_Header_Angled_1x04 (layer F.Cu) (tedit 0) (tstamp 5841737D)
    (at 196.6 154.3 270)
    (descr "Through hole pin header")
    (tags "pin header")
    (path /5848F8BC)
    (fp_text reference P1 (at 0 -5.1 270) (layer F.SilkS)
      (effects (font (size 1 1) (thickness 0.15)))
    )
    (fp_text value CONN_01X04 (at 0 -3.1 270) (layer F.Fab)
      (effects (font (size 1 1) (thickness 0.15)))
    )
    (fp_line (start 1.524 3.81) (end 4.064 3.81) (layer F.SilkS) (width 0.15))
    (fp_line (start 1.524 3.81) (end 1.524 6.35) (layer F.SilkS) (width 0.15))
    (fp_line (start 1.524 6.35) (end 4.064 6.35) (layer F.SilkS) (width 0.15))
    (fp_line (start 4.064 4.826) (end 10.16 4.826) (layer F.SilkS) (width 0.15))
    (fp_line (start 10.16 4.826) (end 10.16 5.334) (layer F.SilkS) (width 0.15))
    (fp_line (start 10.16 5.334) (end 4.064 5.334) (layer F.SilkS) (width 0.15))
    (fp_line (start 4.064 6.35) (end 4.064 3.81) (layer F.SilkS) (width 0.15))
    (fp_line (start 4.064 8.89) (end 4.064 6.35) (layer F.SilkS) (width 0.15))
    (fp_line (start 10.16 7.874) (end 4.064 7.874) (layer F.SilkS) (width 0.15))
    (fp_line (start 10.16 7.366) (end 10.16 7.874) (layer F.SilkS) (width 0.15))
    (fp_line (start 4.064 7.366) (end 10.16 7.366) (layer F.SilkS) (width 0.15))
    (fp_line (start 1.524 8.89) (end 4.064 8.89) (layer F.SilkS) (width 0.15))
    (fp_line (start 1.524 6.35) (end 1.524 8.89) (layer F.SilkS) (width 0.15))
    (fp_line (start 1.524 6.35) (end 4.064 6.35) (layer F.SilkS) (width 0.15))
    (fp_line (start 1.524 -1.27) (end 1.524 1.27) (layer F.SilkS) (width 0.15))
    (fp_line (start 1.524 1.27) (end 4.064 1.27) (layer F.SilkS) (width 0.15))
    (fp_line (start 4.064 -0.254) (end 10.16 -0.254) (layer F.SilkS) (width 0.15))
    (fp_line (start 10.16 -0.254) (end 10.16 0.254) (layer F.SilkS) (width 0.15))
    (fp_line (start 10.16 0.254) (end 4.064 0.254) (layer F.SilkS) (width 0.15))
    (fp_line (start 4.064 1.27) (end 4.064 -1.27) (layer F.SilkS) (width 0.15))
    (fp_line (start 4.064 3.81) (end 4.064 1.27) (layer F.SilkS) (width 0.15))
    (fp_line (start 10.16 2.794) (end 4.064 2.794) (layer F.SilkS) (width 0.15))
    (fp_line (start 10.16 2.286) (end 10.16 2.794) (layer F.SilkS) (width 0.15))
    (fp_line (start 4.064 2.286) (end 10.16 2.286) (layer F.SilkS) (width 0.15))
    (fp_line (start 1.524 3.81) (end 4.064 3.81) (layer F.SilkS) (width 0.15))
    (fp_line (start 1.524 1.27) (end 1.524 3.81) (layer F.SilkS) (width 0.15))
    (fp_line (start 1.524 1.27) (end 4.064 1.27) (layer F.SilkS) (width 0.15))
    (fp_line (start 1.524 -1.27) (end 4.064 -1.27) (layer F.SilkS) (width 0.15))
    (fp_line (start 1.524 7.366) (end 1.143 7.366) (layer F.SilkS) (width 0.15))
    (fp_line (start 1.524 7.874) (end 1.143 7.874) (layer F.SilkS) (width 0.15))
    (fp_line (start 1.524 5.334) (end 1.143 5.334) (layer F.SilkS) (width 0.15))
    (fp_line (start 1.524 4.826) (end 1.143 4.826) (layer F.SilkS) (width 0.15))
    (fp_line (start 1.524 2.794) (end 1.143 2.794) (layer F.SilkS) (width 0.15))
    (fp_line (start 1.524 2.286) (end 1.143 2.286) (layer F.SilkS) (width 0.15))
    (fp_line (start 1.524 0.254) (end 1.143 0.254) (layer F.SilkS) (width 0.15))
    (fp_line (start 1.524 -0.254) (end 1.143 -0.254) (layer F.SilkS) (width 0.15))
    (fp_line (start 4.191 0) (end 10.033 0) (layer F.SilkS) (width 0.15))
    (fp_line (start 4.191 0.127) (end 4.191 0) (layer F.SilkS) (width 0.15))
    (fp_line (start 10.033 0.127) (end 4.191 0.127) (layer F.SilkS) (width 0.15))
    (fp_line (start 10.033 -0.127) (end 10.033 0.127) (layer F.SilkS) (width 0.15))
    (fp_line (start 4.191 -0.127) (end 10.033 -0.127) (layer F.SilkS) (width 0.15))
    (fp_line (start 0 -1.55) (end -1.3 -1.55) (layer F.SilkS) (width 0.15))
    (fp_line (start -1.3 -1.55) (end -1.3 0) (layer F.SilkS) (width 0.15))
    (fp_line (start -1.5 9.4) (end 10.65 9.4) (layer F.CrtYd) (width 0.05))
    (fp_line (start -1.5 -1.75) (end 10.65 -1.75) (layer F.CrtYd) (width 0.05))
    (fp_line (start 10.65 -1.75) (end 10.65 9.4) (layer F.CrtYd) (width 0.05))
    (fp_line (start -1.5 -1.75) (end -1.5 9.4) (layer F.CrtYd) (width 0.05))
    (pad 4 thru_hole oval (at 0 7.62 270) (size 2.032 1.7272) (drill 1.016) (layers *.Cu *.Mask)
      (net 20 "Net-(P1-Pad4)"))
    (pad 3 thru_hole oval (at 0 5.08 270) (size 2.032 1.7272) (drill 1.016) (layers *.Cu *.Mask)
      (net 21 "Net-(P1-Pad3)"))
    (pad 2 thru_hole oval (at 0 2.54 270) (size 2.032 1.7272) (drill 1.016) (layers *.Cu *.Mask)
      (net 22 "Net-(P1-Pad2)"))
    (pad 1 thru_hole rect (at 0 0 270) (size 2.032 1.7272) (drill 1.016) (layers *.Cu *.Mask)
      (net 23 "Net-(P1-Pad1)"))
    (model Pin_Headers.3dshapes/Pin_Header_Angled_1x04.wrl
      (at (xyz 0 -0.15 0))
      (scale (xyz 1 1 1))
      (rotate (xyz 0 0 90))
    )
  )

  (module Pin_Headers:Pin_Header_Angled_1x04 (layer B.Cu) (tedit 584166B3) (tstamp 58417385)
    (at 201.8 154.3 270)
    (descr "Through hole pin header")
    (tags "pin header")
    (path /5848F953)
    (fp_text reference P2 (at 0 5.1 270) (layer B.SilkS)
      (effects (font (size 1 1) (thickness 0.15)) (justify mirror))
    )
    (fp_text value CONN_01X04 (at 0 3.1 360) (layer B.Fab)
      (effects (font (size 1 1) (thickness 0.15)) (justify mirror))
    )
    (fp_line (start -1.5 1.75) (end -1.5 -9.4) (layer B.CrtYd) (width 0.05))
    (fp_line (start 10.65 1.75) (end 10.65 -9.4) (layer B.CrtYd) (width 0.05))
    (fp_line (start -1.5 1.75) (end 10.65 1.75) (layer B.CrtYd) (width 0.05))
    (fp_line (start -1.5 -9.4) (end 10.65 -9.4) (layer B.CrtYd) (width 0.05))
    (fp_line (start -1.3 1.55) (end -1.3 0) (layer B.SilkS) (width 0.15))
    (fp_line (start 0 1.55) (end -1.3 1.55) (layer B.SilkS) (width 0.15))
    (fp_line (start 4.191 0.127) (end 10.033 0.127) (layer B.SilkS) (width 0.15))
    (fp_line (start 10.033 0.127) (end 10.033 -0.127) (layer B.SilkS) (width 0.15))
    (fp_line (start 10.033 -0.127) (end 4.191 -0.127) (layer B.SilkS) (width 0.15))
    (fp_line (start 4.191 -0.127) (end 4.191 0) (layer B.SilkS) (width 0.15))
    (fp_line (start 4.191 0) (end 10.033 0) (layer B.SilkS) (width 0.15))
    (fp_line (start 1.524 0.254) (end 1.143 0.254) (layer B.SilkS) (width 0.15))
    (fp_line (start 1.524 -0.254) (end 1.143 -0.254) (layer B.SilkS) (width 0.15))
    (fp_line (start 1.524 -2.286) (end 1.143 -2.286) (layer B.SilkS) (width 0.15))
    (fp_line (start 1.524 -2.794) (end 1.143 -2.794) (layer B.SilkS) (width 0.15))
    (fp_line (start 1.524 -4.826) (end 1.143 -4.826) (layer B.SilkS) (width 0.15))
    (fp_line (start 1.524 -5.334) (end 1.143 -5.334) (layer B.SilkS) (width 0.15))
    (fp_line (start 1.524 -7.874) (end 1.143 -7.874) (layer B.SilkS) (width 0.15))
    (fp_line (start 1.524 -7.366) (end 1.143 -7.366) (layer B.SilkS) (width 0.15))
    (fp_line (start 1.524 1.27) (end 4.064 1.27) (layer B.SilkS) (width 0.15))
    (fp_line (start 1.524 -1.27) (end 4.064 -1.27) (layer B.SilkS) (width 0.15))
    (fp_line (start 1.524 -1.27) (end 1.524 -3.81) (layer B.SilkS) (width 0.15))
    (fp_line (start 1.524 -3.81) (end 4.064 -3.81) (layer B.SilkS) (width 0.15))
    (fp_line (start 4.064 -2.286) (end 10.16 -2.286) (layer B.SilkS) (width 0.15))
    (fp_line (start 10.16 -2.286) (end 10.16 -2.794) (layer B.SilkS) (width 0.15))
    (fp_line (start 10.16 -2.794) (end 4.064 -2.794) (layer B.SilkS) (width 0.15))
    (fp_line (start 4.064 -3.81) (end 4.064 -1.27) (layer B.SilkS) (width 0.15))
    (fp_line (start 4.064 -1.27) (end 4.064 1.27) (layer B.SilkS) (width 0.15))
    (fp_line (start 10.16 -0.254) (end 4.064 -0.254) (layer B.SilkS) (width 0.15))
    (fp_line (start 10.16 0.254) (end 10.16 -0.254) (layer B.SilkS) (width 0.15))
    (fp_line (start 4.064 0.254) (end 10.16 0.254) (layer B.SilkS) (width 0.15))
    (fp_line (start 1.524 -1.27) (end 4.064 -1.27) (layer B.SilkS) (width 0.15))
    (fp_line (start 1.524 1.27) (end 1.524 -1.27) (layer B.SilkS) (width 0.15))
    (fp_line (start 1.524 -6.35) (end 4.064 -6.35) (layer B.SilkS) (width 0.15))
    (fp_line (start 1.524 -6.35) (end 1.524 -8.89) (layer B.SilkS) (width 0.15))
    (fp_line (start 1.524 -8.89) (end 4.064 -8.89) (layer B.SilkS) (width 0.15))
    (fp_line (start 4.064 -7.366) (end 10.16 -7.366) (layer B.SilkS) (width 0.15))
    (fp_line (start 10.16 -7.366) (end 10.16 -7.874) (layer B.SilkS) (width 0.15))
    (fp_line (start 10.16 -7.874) (end 4.064 -7.874) (layer B.SilkS) (width 0.15))
    (fp_line (start 4.064 -8.89) (end 4.064 -6.35) (layer B.SilkS) (width 0.15))
    (fp_line (start 4.064 -6.35) (end 4.064 -3.81) (layer B.SilkS) (width 0.15))
    (fp_line (start 10.16 -5.334) (end 4.064 -5.334) (layer B.SilkS) (width 0.15))
    (fp_line (start 10.16 -4.826) (end 10.16 -5.334) (layer B.SilkS) (width 0.15))
    (fp_line (start 4.064 -4.826) (end 10.16 -4.826) (layer B.SilkS) (width 0.15))
    (fp_line (start 1.524 -6.35) (end 4.064 -6.35) (layer B.SilkS) (width 0.15))
    (fp_line (start 1.524 -3.81) (end 1.524 -6.35) (layer B.SilkS) (width 0.15))
    (fp_line (start 1.524 -3.81) (end 4.064 -3.81) (layer B.SilkS) (width 0.15))
    (pad 1 thru_hole rect (at 0 0 270) (size 2.032 1.7272) (drill 1.016) (layers *.Cu *.Mask)
      (net 27 "Net-(D13-Pad1)"))
    (pad 2 thru_hole oval (at 0 -2.54 270) (size 2.032 1.7272) (drill 1.016) (layers *.Cu *.Mask)
      (net 26 "Net-(D12-Pad1)"))
    (pad 3 thru_hole oval (at 0 -5.08 270) (size 2.032 1.7272) (drill 1.016) (layers *.Cu *.Mask)
      (net 25 "Net-(D11-Pad1)"))
    (pad 4 thru_hole oval (at 0 -7.62 270) (size 2.032 1.7272) (drill 1.016) (layers *.Cu *.Mask)
      (net 1 "Net-(D1-Pad1)"))
    (model Pin_Headers.3dshapes/Pin_Header_Angled_1x04.wrl
      (at (xyz 0 -0.15 0))
      (scale (xyz 1 1 1))
      (rotate (xyz 0 0 90))
    )
  )

  (module Pin_Headers:Pin_Header_Angled_1x04 (layer B.Cu) (tedit 0) (tstamp 5841738D)
    (at 178.8 154.3 270)
    (descr "Through hole pin header")
    (tags "pin header")
    (path /5848F9A2)
    (fp_text reference P3 (at 0 5.1 270) (layer B.SilkS)
      (effects (font (size 1 1) (thickness 0.15)) (justify mirror))
    )
    (fp_text value CONN_01X04 (at 0 3.1 270) (layer B.Fab)
      (effects (font (size 1 1) (thickness 0.15)) (justify mirror))
    )
    (fp_line (start 1.524 -3.81) (end 4.064 -3.81) (layer B.SilkS) (width 0.15))
    (fp_line (start 1.524 -3.81) (end 1.524 -6.35) (layer B.SilkS) (width 0.15))
    (fp_line (start 1.524 -6.35) (end 4.064 -6.35) (layer B.SilkS) (width 0.15))
    (fp_line (start 4.064 -4.826) (end 10.16 -4.826) (layer B.SilkS) (width 0.15))
    (fp_line (start 10.16 -4.826) (end 10.16 -5.334) (layer B.SilkS) (width 0.15))
    (fp_line (start 10.16 -5.334) (end 4.064 -5.334) (layer B.SilkS) (width 0.15))
    (fp_line (start 4.064 -6.35) (end 4.064 -3.81) (layer B.SilkS) (width 0.15))
    (fp_line (start 4.064 -8.89) (end 4.064 -6.35) (layer B.SilkS) (width 0.15))
    (fp_line (start 10.16 -7.874) (end 4.064 -7.874) (layer B.SilkS) (width 0.15))
    (fp_line (start 10.16 -7.366) (end 10.16 -7.874) (layer B.SilkS) (width 0.15))
    (fp_line (start 4.064 -7.366) (end 10.16 -7.366) (layer B.SilkS) (width 0.15))
    (fp_line (start 1.524 -8.89) (end 4.064 -8.89) (layer B.SilkS) (width 0.15))
    (fp_line (start 1.524 -6.35) (end 1.524 -8.89) (layer B.SilkS) (width 0.15))
    (fp_line (start 1.524 -6.35) (end 4.064 -6.35) (layer B.SilkS) (width 0.15))
    (fp_line (start 1.524 1.27) (end 1.524 -1.27) (layer B.SilkS) (width 0.15))
    (fp_line (start 1.524 -1.27) (end 4.064 -1.27) (layer B.SilkS) (width 0.15))
    (fp_line (start 4.064 0.254) (end 10.16 0.254) (layer B.SilkS) (width 0.15))
    (fp_line (start 10.16 0.254) (end 10.16 -0.254) (layer B.SilkS) (width 0.15))
    (fp_line (start 10.16 -0.254) (end 4.064 -0.254) (layer B.SilkS) (width 0.15))
    (fp_line (start 4.064 -1.27) (end 4.064 1.27) (layer B.SilkS) (width 0.15))
    (fp_line (start 4.064 -3.81) (end 4.064 -1.27) (layer B.SilkS) (width 0.15))
    (fp_line (start 10.16 -2.794) (end 4.064 -2.794) (layer B.SilkS) (width 0.15))
    (fp_line (start 10.16 -2.286) (end 10.16 -2.794) (layer B.SilkS) (width 0.15))
    (fp_line (start 4.064 -2.286) (end 10.16 -2.286) (layer B.SilkS) (width 0.15))
    (fp_line (start 1.524 -3.81) (end 4.064 -3.81) (layer B.SilkS) (width 0.15))
    (fp_line (start 1.524 -1.27) (end 1.524 -3.81) (layer B.SilkS) (width 0.15))
    (fp_line (start 1.524 -1.27) (end 4.064 -1.27) (layer B.SilkS) (width 0.15))
    (fp_line (start 1.524 1.27) (end 4.064 1.27) (layer B.SilkS) (width 0.15))
    (fp_line (start 1.524 -7.366) (end 1.143 -7.366) (layer B.SilkS) (width 0.15))
    (fp_line (start 1.524 -7.874) (end 1.143 -7.874) (layer B.SilkS) (width 0.15))
    (fp_line (start 1.524 -5.334) (end 1.143 -5.334) (layer B.SilkS) (width 0.15))
    (fp_line (start 1.524 -4.826) (end 1.143 -4.826) (layer B.SilkS) (width 0.15))
    (fp_line (start 1.524 -2.794) (end 1.143 -2.794) (layer B.SilkS) (width 0.15))
    (fp_line (start 1.524 -2.286) (end 1.143 -2.286) (layer B.SilkS) (width 0.15))
    (fp_line (start 1.524 -0.254) (end 1.143 -0.254) (layer B.SilkS) (width 0.15))
    (fp_line (start 1.524 0.254) (end 1.143 0.254) (layer B.SilkS) (width 0.15))
    (fp_line (start 4.191 0) (end 10.033 0) (layer B.SilkS) (width 0.15))
    (fp_line (start 4.191 -0.127) (end 4.191 0) (layer B.SilkS) (width 0.15))
    (fp_line (start 10.033 -0.127) (end 4.191 -0.127) (layer B.SilkS) (width 0.15))
    (fp_line (start 10.033 0.127) (end 10.033 -0.127) (layer B.SilkS) (width 0.15))
    (fp_line (start 4.191 0.127) (end 10.033 0.127) (layer B.SilkS) (width 0.15))
    (fp_line (start 0 1.55) (end -1.3 1.55) (layer B.SilkS) (width 0.15))
    (fp_line (start -1.3 1.55) (end -1.3 0) (layer B.SilkS) (width 0.15))
    (fp_line (start -1.5 -9.4) (end 10.65 -9.4) (layer B.CrtYd) (width 0.05))
    (fp_line (start -1.5 1.75) (end 10.65 1.75) (layer B.CrtYd) (width 0.05))
    (fp_line (start 10.65 1.75) (end 10.65 -9.4) (layer B.CrtYd) (width 0.05))
    (fp_line (start -1.5 1.75) (end -1.5 -9.4) (layer B.CrtYd) (width 0.05))
    (pad 4 thru_hole oval (at 0 -7.62 270) (size 2.032 1.7272) (drill 1.016) (layers *.Cu *.Mask)
      (net 24 "Net-(P3-Pad4)"))
    (pad 3 thru_hole oval (at 0 -5.08 270) (size 2.032 1.7272) (drill 1.016) (layers *.Cu *.Mask)
      (net 19 GND))
    (pad 2 thru_hole oval (at 0 -2.54 270) (size 2.032 1.7272) (drill 1.016) (layers *.Cu *.Mask)
      (net 19 GND))
    (pad 1 thru_hole rect (at 0 0 270) (size 2.032 1.7272) (drill 1.016) (layers *.Cu *.Mask)
      (net 19 GND))
    (model Pin_Headers.3dshapes/Pin_Header_Angled_1x04.wrl
      (at (xyz 0 -0.15 0))
      (scale (xyz 1 1 1))
      (rotate (xyz 0 0 90))
    )
  )

  (module Pin_Headers:Pin_Header_Angled_1x04 (layer F.Cu) (tedit 0) (tstamp 58417395)
    (at 219.6 154.3 270)
    (descr "Through hole pin header")
    (tags "pin header")
    (path /5848F9DB)
    (fp_text reference P4 (at 0 -5.1 270) (layer F.SilkS)
      (effects (font (size 1 1) (thickness 0.15)))
    )
    (fp_text value CONN_01X04 (at 0 -3.1 270) (layer F.Fab)
      (effects (font (size 1 1) (thickness 0.15)))
    )
    (fp_line (start -1.5 -1.75) (end -1.5 9.4) (layer F.CrtYd) (width 0.05))
    (fp_line (start 10.65 -1.75) (end 10.65 9.4) (layer F.CrtYd) (width 0.05))
    (fp_line (start -1.5 -1.75) (end 10.65 -1.75) (layer F.CrtYd) (width 0.05))
    (fp_line (start -1.5 9.4) (end 10.65 9.4) (layer F.CrtYd) (width 0.05))
    (fp_line (start -1.3 -1.55) (end -1.3 0) (layer F.SilkS) (width 0.15))
    (fp_line (start 0 -1.55) (end -1.3 -1.55) (layer F.SilkS) (width 0.15))
    (fp_line (start 4.191 -0.127) (end 10.033 -0.127) (layer F.SilkS) (width 0.15))
    (fp_line (start 10.033 -0.127) (end 10.033 0.127) (layer F.SilkS) (width 0.15))
    (fp_line (start 10.033 0.127) (end 4.191 0.127) (layer F.SilkS) (width 0.15))
    (fp_line (start 4.191 0.127) (end 4.191 0) (layer F.SilkS) (width 0.15))
    (fp_line (start 4.191 0) (end 10.033 0) (layer F.SilkS) (width 0.15))
    (fp_line (start 1.524 -0.254) (end 1.143 -0.254) (layer F.SilkS) (width 0.15))
    (fp_line (start 1.524 0.254) (end 1.143 0.254) (layer F.SilkS) (width 0.15))
    (fp_line (start 1.524 2.286) (end 1.143 2.286) (layer F.SilkS) (width 0.15))
    (fp_line (start 1.524 2.794) (end 1.143 2.794) (layer F.SilkS) (width 0.15))
    (fp_line (start 1.524 4.826) (end 1.143 4.826) (layer F.SilkS) (width 0.15))
    (fp_line (start 1.524 5.334) (end 1.143 5.334) (layer F.SilkS) (width 0.15))
    (fp_line (start 1.524 7.874) (end 1.143 7.874) (layer F.SilkS) (width 0.15))
    (fp_line (start 1.524 7.366) (end 1.143 7.366) (layer F.SilkS) (width 0.15))
    (fp_line (start 1.524 -1.27) (end 4.064 -1.27) (layer F.SilkS) (width 0.15))
    (fp_line (start 1.524 1.27) (end 4.064 1.27) (layer F.SilkS) (width 0.15))
    (fp_line (start 1.524 1.27) (end 1.524 3.81) (layer F.SilkS) (width 0.15))
    (fp_line (start 1.524 3.81) (end 4.064 3.81) (layer F.SilkS) (width 0.15))
    (fp_line (start 4.064 2.286) (end 10.16 2.286) (layer F.SilkS) (width 0.15))
    (fp_line (start 10.16 2.286) (end 10.16 2.794) (layer F.SilkS) (width 0.15))
    (fp_line (start 10.16 2.794) (end 4.064 2.794) (layer F.SilkS) (width 0.15))
    (fp_line (start 4.064 3.81) (end 4.064 1.27) (layer F.SilkS) (width 0.15))
    (fp_line (start 4.064 1.27) (end 4.064 -1.27) (layer F.SilkS) (width 0.15))
    (fp_line (start 10.16 0.254) (end 4.064 0.254) (layer F.SilkS) (width 0.15))
    (fp_line (start 10.16 -0.254) (end 10.16 0.254) (layer F.SilkS) (width 0.15))
    (fp_line (start 4.064 -0.254) (end 10.16 -0.254) (layer F.SilkS) (width 0.15))
    (fp_line (start 1.524 1.27) (end 4.064 1.27) (layer F.SilkS) (width 0.15))
    (fp_line (start 1.524 -1.27) (end 1.524 1.27) (layer F.SilkS) (width 0.15))
    (fp_line (start 1.524 6.35) (end 4.064 6.35) (layer F.SilkS) (width 0.15))
    (fp_line (start 1.524 6.35) (end 1.524 8.89) (layer F.SilkS) (width 0.15))
    (fp_line (start 1.524 8.89) (end 4.064 8.89) (layer F.SilkS) (width 0.15))
    (fp_line (start 4.064 7.366) (end 10.16 7.366) (layer F.SilkS) (width 0.15))
    (fp_line (start 10.16 7.366) (end 10.16 7.874) (layer F.SilkS) (width 0.15))
    (fp_line (start 10.16 7.874) (end 4.064 7.874) (layer F.SilkS) (width 0.15))
    (fp_line (start 4.064 8.89) (end 4.064 6.35) (layer F.SilkS) (width 0.15))
    (fp_line (start 4.064 6.35) (end 4.064 3.81) (layer F.SilkS) (width 0.15))
    (fp_line (start 10.16 5.334) (end 4.064 5.334) (layer F.SilkS) (width 0.15))
    (fp_line (start 10.16 4.826) (end 10.16 5.334) (layer F.SilkS) (width 0.15))
    (fp_line (start 4.064 4.826) (end 10.16 4.826) (layer F.SilkS) (width 0.15))
    (fp_line (start 1.524 6.35) (end 4.064 6.35) (layer F.SilkS) (width 0.15))
    (fp_line (start 1.524 3.81) (end 1.524 6.35) (layer F.SilkS) (width 0.15))
    (fp_line (start 1.524 3.81) (end 4.064 3.81) (layer F.SilkS) (width 0.15))
    (pad 1 thru_hole rect (at 0 0 270) (size 2.032 1.7272) (drill 1.016) (layers *.Cu *.Mask)
      (net 19 GND))
    (pad 2 thru_hole oval (at 0 2.54 270) (size 2.032 1.7272) (drill 1.016) (layers *.Cu *.Mask)
      (net 19 GND))
    (pad 3 thru_hole oval (at 0 5.08 270) (size 2.032 1.7272) (drill 1.016) (layers *.Cu *.Mask)
      (net 19 GND))
    (pad 4 thru_hole oval (at 0 7.62 270) (size 2.032 1.7272) (drill 1.016) (layers *.Cu *.Mask)
      (net 19 GND))
    (model Pin_Headers.3dshapes/Pin_Header_Angled_1x04.wrl
      (at (xyz 0 -0.15 0))
      (scale (xyz 1 1 1))
      (rotate (xyz 0 0 90))
    )
  )

  (module Resistors_ThroughHole:Resistor_Horizontal_RM7mm (layer F.Cu) (tedit 569FCF07) (tstamp 5841739B)
    (at 194.4 74.3 180)
    (descr "Resistor, Axial,  RM 7.62mm, 1/3W,")
    (tags "Resistor Axial RM 7.62mm 1/3W R3")
    (path /5848FBE9)
    (fp_text reference R1 (at 4.05892 -3.50012 180) (layer F.SilkS)
      (effects (font (size 1 1) (thickness 0.15)))
    )
    (fp_text value 1k (at 3.81 3.81 180) (layer F.Fab)
      (effects (font (size 1 1) (thickness 0.15)))
    )
    (fp_line (start 1.27 1.27) (end 1.27 -1.27) (layer F.SilkS) (width 0.15))
    (fp_line (start 6.35 1.27) (end 1.27 1.27) (layer F.SilkS) (width 0.15))
    (fp_line (start 6.35 -1.27) (end 6.35 1.27) (layer F.SilkS) (width 0.15))
    (fp_line (start 1.27 -1.27) (end 6.35 -1.27) (layer F.SilkS) (width 0.15))
    (fp_line (start -1.25 1.5) (end 8.85 1.5) (layer F.CrtYd) (width 0.05))
    (fp_line (start 8.85 -1.5) (end 8.85 1.5) (layer F.CrtYd) (width 0.05))
    (fp_line (start -1.25 1.5) (end -1.25 -1.5) (layer F.CrtYd) (width 0.05))
    (fp_line (start -1.25 -1.5) (end 8.85 -1.5) (layer F.CrtYd) (width 0.05))
    (pad 2 thru_hole circle (at 7.62 0 180) (size 1.99898 1.99898) (drill 1.00076) (layers *.Cu *.SilkS *.Mask)
      (net 21 "Net-(P1-Pad3)"))
    (pad 1 thru_hole circle (at 0 0 180) (size 1.99898 1.99898) (drill 1.00076) (layers *.Cu *.SilkS *.Mask)
      (net 2 "Net-(D1-Pad2)"))
  )

  (module Resistors_ThroughHole:Resistor_Horizontal_RM7mm (layer B.Cu) (tedit 569FCF07) (tstamp 584173A1)
    (at 184.5 99.7 180)
    (descr "Resistor, Axial,  RM 7.62mm, 1/3W,")
    (tags "Resistor Axial RM 7.62mm 1/3W R3")
    (path /5848FEFE)
    (fp_text reference R2 (at 4.05892 3.50012 180) (layer B.SilkS)
      (effects (font (size 1 1) (thickness 0.15)) (justify mirror))
    )
    (fp_text value 1k (at 3.81 -3.81 180) (layer B.Fab)
      (effects (font (size 1 1) (thickness 0.15)) (justify mirror))
    )
    (fp_line (start 1.27 -1.27) (end 1.27 1.27) (layer B.SilkS) (width 0.15))
    (fp_line (start 6.35 -1.27) (end 1.27 -1.27) (layer B.SilkS) (width 0.15))
    (fp_line (start 6.35 1.27) (end 6.35 -1.27) (layer B.SilkS) (width 0.15))
    (fp_line (start 1.27 1.27) (end 6.35 1.27) (layer B.SilkS) (width 0.15))
    (fp_line (start -1.25 -1.5) (end 8.85 -1.5) (layer B.CrtYd) (width 0.05))
    (fp_line (start 8.85 1.5) (end 8.85 -1.5) (layer B.CrtYd) (width 0.05))
    (fp_line (start -1.25 -1.5) (end -1.25 1.5) (layer B.CrtYd) (width 0.05))
    (fp_line (start -1.25 1.5) (end 8.85 1.5) (layer B.CrtYd) (width 0.05))
    (pad 2 thru_hole circle (at 7.62 0 180) (size 1.99898 1.99898) (drill 1.00076) (layers *.Cu *.SilkS *.Mask)
      (net 22 "Net-(P1-Pad2)"))
    (pad 1 thru_hole circle (at 0 0 180) (size 1.99898 1.99898) (drill 1.00076) (layers *.Cu *.SilkS *.Mask)
      (net 3 "Net-(D2-Pad2)"))
  )

  (module Resistors_ThroughHole:Resistor_Horizontal_RM7mm (layer F.Cu) (tedit 569FCF07) (tstamp 584173A7)
    (at 210.3 95 270)
    (descr "Resistor, Axial,  RM 7.62mm, 1/3W,")
    (tags "Resistor Axial RM 7.62mm 1/3W R3")
    (path /5848FF66)
    (fp_text reference R3 (at 4.05892 -3.50012 270) (layer F.SilkS)
      (effects (font (size 1 1) (thickness 0.15)))
    )
    (fp_text value 1k (at 3.81 3.81 270) (layer F.Fab)
      (effects (font (size 1 1) (thickness 0.15)))
    )
    (fp_line (start 1.27 1.27) (end 1.27 -1.27) (layer F.SilkS) (width 0.15))
    (fp_line (start 6.35 1.27) (end 1.27 1.27) (layer F.SilkS) (width 0.15))
    (fp_line (start 6.35 -1.27) (end 6.35 1.27) (layer F.SilkS) (width 0.15))
    (fp_line (start 1.27 -1.27) (end 6.35 -1.27) (layer F.SilkS) (width 0.15))
    (fp_line (start -1.25 1.5) (end 8.85 1.5) (layer F.CrtYd) (width 0.05))
    (fp_line (start 8.85 -1.5) (end 8.85 1.5) (layer F.CrtYd) (width 0.05))
    (fp_line (start -1.25 1.5) (end -1.25 -1.5) (layer F.CrtYd) (width 0.05))
    (fp_line (start -1.25 -1.5) (end 8.85 -1.5) (layer F.CrtYd) (width 0.05))
    (pad 2 thru_hole circle (at 7.62 0 270) (size 1.99898 1.99898) (drill 1.00076) (layers *.Cu *.SilkS *.Mask)
      (net 23 "Net-(P1-Pad1)"))
    (pad 1 thru_hole circle (at 0 0 270) (size 1.99898 1.99898) (drill 1.00076) (layers *.Cu *.SilkS *.Mask)
      (net 4 "Net-(D3-Pad2)"))
  )

  (module Resistors_ThroughHole:Resistor_Horizontal_RM7mm (layer B.Cu) (tedit 569FCF07) (tstamp 584173AD)
    (at 213.4 119.8)
    (descr "Resistor, Axial,  RM 7.62mm, 1/3W,")
    (tags "Resistor Axial RM 7.62mm 1/3W R3")
    (path /584918BD)
    (fp_text reference R4 (at 4.05892 3.50012) (layer B.SilkS)
      (effects (font (size 1 1) (thickness 0.15)) (justify mirror))
    )
    (fp_text value 1k (at 3.81 -3.81) (layer B.Fab)
      (effects (font (size 1 1) (thickness 0.15)) (justify mirror))
    )
    (fp_line (start 1.27 -1.27) (end 1.27 1.27) (layer B.SilkS) (width 0.15))
    (fp_line (start 6.35 -1.27) (end 1.27 -1.27) (layer B.SilkS) (width 0.15))
    (fp_line (start 6.35 1.27) (end 6.35 -1.27) (layer B.SilkS) (width 0.15))
    (fp_line (start 1.27 1.27) (end 6.35 1.27) (layer B.SilkS) (width 0.15))
    (fp_line (start -1.25 -1.5) (end 8.85 -1.5) (layer B.CrtYd) (width 0.05))
    (fp_line (start 8.85 1.5) (end 8.85 -1.5) (layer B.CrtYd) (width 0.05))
    (fp_line (start -1.25 -1.5) (end -1.25 1.5) (layer B.CrtYd) (width 0.05))
    (fp_line (start -1.25 1.5) (end 8.85 1.5) (layer B.CrtYd) (width 0.05))
    (pad 2 thru_hole circle (at 7.62 0) (size 1.99898 1.99898) (drill 1.00076) (layers *.Cu *.SilkS *.Mask)
      (net 21 "Net-(P1-Pad3)"))
    (pad 1 thru_hole circle (at 0 0) (size 1.99898 1.99898) (drill 1.00076) (layers *.Cu *.SilkS *.Mask)
      (net 5 "Net-(D4-Pad2)"))
  )

  (module Resistors_ThroughHole:Resistor_Horizontal_RM7mm (layer F.Cu) (tedit 569FCF07) (tstamp 584173B3)
    (at 223.7 137.1)
    (descr "Resistor, Axial,  RM 7.62mm, 1/3W,")
    (tags "Resistor Axial RM 7.62mm 1/3W R3")
    (path /584918C9)
    (fp_text reference R5 (at 4.05892 -3.50012) (layer F.SilkS)
      (effects (font (size 1 1) (thickness 0.15)))
    )
    (fp_text value 1k (at 3.81 3.81) (layer F.Fab)
      (effects (font (size 1 1) (thickness 0.15)))
    )
    (fp_line (start 1.27 1.27) (end 1.27 -1.27) (layer F.SilkS) (width 0.15))
    (fp_line (start 6.35 1.27) (end 1.27 1.27) (layer F.SilkS) (width 0.15))
    (fp_line (start 6.35 -1.27) (end 6.35 1.27) (layer F.SilkS) (width 0.15))
    (fp_line (start 1.27 -1.27) (end 6.35 -1.27) (layer F.SilkS) (width 0.15))
    (fp_line (start -1.25 1.5) (end 8.85 1.5) (layer F.CrtYd) (width 0.05))
    (fp_line (start 8.85 -1.5) (end 8.85 1.5) (layer F.CrtYd) (width 0.05))
    (fp_line (start -1.25 1.5) (end -1.25 -1.5) (layer F.CrtYd) (width 0.05))
    (fp_line (start -1.25 -1.5) (end 8.85 -1.5) (layer F.CrtYd) (width 0.05))
    (pad 2 thru_hole circle (at 7.62 0) (size 1.99898 1.99898) (drill 1.00076) (layers *.Cu *.SilkS *.Mask)
      (net 22 "Net-(P1-Pad2)"))
    (pad 1 thru_hole circle (at 0 0) (size 1.99898 1.99898) (drill 1.00076) (layers *.Cu *.SilkS *.Mask)
      (net 6 "Net-(D5-Pad2)"))
  )

  (module Resistors_ThroughHole:Resistor_Horizontal_RM7mm (layer B.Cu) (tedit 569FCF07) (tstamp 584173B9)
    (at 206.6 74.8)
    (descr "Resistor, Axial,  RM 7.62mm, 1/3W,")
    (tags "Resistor Axial RM 7.62mm 1/3W R3")
    (path /584918D5)
    (fp_text reference R6 (at 4.05892 3.50012) (layer B.SilkS)
      (effects (font (size 1 1) (thickness 0.15)) (justify mirror))
    )
    (fp_text value 1k (at 3.81 -3.81) (layer B.Fab)
      (effects (font (size 1 1) (thickness 0.15)) (justify mirror))
    )
    (fp_line (start 1.27 -1.27) (end 1.27 1.27) (layer B.SilkS) (width 0.15))
    (fp_line (start 6.35 -1.27) (end 1.27 -1.27) (layer B.SilkS) (width 0.15))
    (fp_line (start 6.35 1.27) (end 6.35 -1.27) (layer B.SilkS) (width 0.15))
    (fp_line (start 1.27 1.27) (end 6.35 1.27) (layer B.SilkS) (width 0.15))
    (fp_line (start -1.25 -1.5) (end 8.85 -1.5) (layer B.CrtYd) (width 0.05))
    (fp_line (start 8.85 1.5) (end 8.85 -1.5) (layer B.CrtYd) (width 0.05))
    (fp_line (start -1.25 -1.5) (end -1.25 1.5) (layer B.CrtYd) (width 0.05))
    (fp_line (start -1.25 1.5) (end 8.85 1.5) (layer B.CrtYd) (width 0.05))
    (pad 2 thru_hole circle (at 7.62 0) (size 1.99898 1.99898) (drill 1.00076) (layers *.Cu *.SilkS *.Mask)
      (net 23 "Net-(P1-Pad1)"))
    (pad 1 thru_hole circle (at 0 0) (size 1.99898 1.99898) (drill 1.00076) (layers *.Cu *.SilkS *.Mask)
      (net 7 "Net-(D6-Pad2)"))
  )

  (module Resistors_ThroughHole:Resistor_Horizontal_RM7mm (layer F.Cu) (tedit 569FCF07) (tstamp 584173BF)
    (at 167.3 144.6 90)
    (descr "Resistor, Axial,  RM 7.62mm, 1/3W,")
    (tags "Resistor Axial RM 7.62mm 1/3W R3")
    (path /584919B5)
    (fp_text reference R7 (at 4.05892 -3.50012 90) (layer F.SilkS)
      (effects (font (size 1 1) (thickness 0.15)))
    )
    (fp_text value 1k (at 3.81 3.81 90) (layer F.Fab)
      (effects (font (size 1 1) (thickness 0.15)))
    )
    (fp_line (start 1.27 1.27) (end 1.27 -1.27) (layer F.SilkS) (width 0.15))
    (fp_line (start 6.35 1.27) (end 1.27 1.27) (layer F.SilkS) (width 0.15))
    (fp_line (start 6.35 -1.27) (end 6.35 1.27) (layer F.SilkS) (width 0.15))
    (fp_line (start 1.27 -1.27) (end 6.35 -1.27) (layer F.SilkS) (width 0.15))
    (fp_line (start -1.25 1.5) (end 8.85 1.5) (layer F.CrtYd) (width 0.05))
    (fp_line (start 8.85 -1.5) (end 8.85 1.5) (layer F.CrtYd) (width 0.05))
    (fp_line (start -1.25 1.5) (end -1.25 -1.5) (layer F.CrtYd) (width 0.05))
    (fp_line (start -1.25 -1.5) (end 8.85 -1.5) (layer F.CrtYd) (width 0.05))
    (pad 2 thru_hole circle (at 7.62 0 90) (size 1.99898 1.99898) (drill 1.00076) (layers *.Cu *.SilkS *.Mask)
      (net 21 "Net-(P1-Pad3)"))
    (pad 1 thru_hole circle (at 0 0 90) (size 1.99898 1.99898) (drill 1.00076) (layers *.Cu *.SilkS *.Mask)
      (net 8 "Net-(D7-Pad2)"))
  )

  (module Resistors_ThroughHole:Resistor_Horizontal_RM7mm (layer B.Cu) (tedit 569FCF07) (tstamp 584173C5)
    (at 195.5 78.6 270)
    (descr "Resistor, Axial,  RM 7.62mm, 1/3W,")
    (tags "Resistor Axial RM 7.62mm 1/3W R3")
    (path /584919C1)
    (fp_text reference R8 (at 4.05892 3.50012 270) (layer B.SilkS)
      (effects (font (size 1 1) (thickness 0.15)) (justify mirror))
    )
    (fp_text value 1k (at 3.81 -3.81 270) (layer B.Fab)
      (effects (font (size 1 1) (thickness 0.15)) (justify mirror))
    )
    (fp_line (start 1.27 -1.27) (end 1.27 1.27) (layer B.SilkS) (width 0.15))
    (fp_line (start 6.35 -1.27) (end 1.27 -1.27) (layer B.SilkS) (width 0.15))
    (fp_line (start 6.35 1.27) (end 6.35 -1.27) (layer B.SilkS) (width 0.15))
    (fp_line (start 1.27 1.27) (end 6.35 1.27) (layer B.SilkS) (width 0.15))
    (fp_line (start -1.25 -1.5) (end 8.85 -1.5) (layer B.CrtYd) (width 0.05))
    (fp_line (start 8.85 1.5) (end 8.85 -1.5) (layer B.CrtYd) (width 0.05))
    (fp_line (start -1.25 -1.5) (end -1.25 1.5) (layer B.CrtYd) (width 0.05))
    (fp_line (start -1.25 1.5) (end 8.85 1.5) (layer B.CrtYd) (width 0.05))
    (pad 2 thru_hole circle (at 7.62 0 270) (size 1.99898 1.99898) (drill 1.00076) (layers *.Cu *.SilkS *.Mask)
      (net 22 "Net-(P1-Pad2)"))
    (pad 1 thru_hole circle (at 0 0 270) (size 1.99898 1.99898) (drill 1.00076) (layers *.Cu *.SilkS *.Mask)
      (net 9 "Net-(D8-Pad2)"))
  )

  (module Resistors_ThroughHole:Resistor_Horizontal_RM7mm (layer F.Cu) (tedit 569FCF07) (tstamp 584173CB)
    (at 203.3 78.2 270)
    (descr "Resistor, Axial,  RM 7.62mm, 1/3W,")
    (tags "Resistor Axial RM 7.62mm 1/3W R3")
    (path /584919CD)
    (fp_text reference R9 (at 4.05892 -3.50012 270) (layer F.SilkS)
      (effects (font (size 1 1) (thickness 0.15)))
    )
    (fp_text value 1k (at 3.81 3.81 270) (layer F.Fab)
      (effects (font (size 1 1) (thickness 0.15)))
    )
    (fp_line (start -1.25 -1.5) (end 8.85 -1.5) (layer F.CrtYd) (width 0.05))
    (fp_line (start -1.25 1.5) (end -1.25 -1.5) (layer F.CrtYd) (width 0.05))
    (fp_line (start 8.85 -1.5) (end 8.85 1.5) (layer F.CrtYd) (width 0.05))
    (fp_line (start -1.25 1.5) (end 8.85 1.5) (layer F.CrtYd) (width 0.05))
    (fp_line (start 1.27 -1.27) (end 6.35 -1.27) (layer F.SilkS) (width 0.15))
    (fp_line (start 6.35 -1.27) (end 6.35 1.27) (layer F.SilkS) (width 0.15))
    (fp_line (start 6.35 1.27) (end 1.27 1.27) (layer F.SilkS) (width 0.15))
    (fp_line (start 1.27 1.27) (end 1.27 -1.27) (layer F.SilkS) (width 0.15))
    (pad 1 thru_hole circle (at 0 0 270) (size 1.99898 1.99898) (drill 1.00076) (layers *.Cu *.SilkS *.Mask)
      (net 10 "Net-(D9-Pad2)"))
    (pad 2 thru_hole circle (at 7.62 0 270) (size 1.99898 1.99898) (drill 1.00076) (layers *.Cu *.SilkS *.Mask)
      (net 23 "Net-(P1-Pad1)"))
  )

  (module Resistors_ThroughHole:Resistor_Horizontal_RM7mm (layer B.Cu) (tedit 569FCF07) (tstamp 584173D1)
    (at 219 130 270)
    (descr "Resistor, Axial,  RM 7.62mm, 1/3W,")
    (tags "Resistor Axial RM 7.62mm 1/3W R3")
    (path /5849357D)
    (fp_text reference R10 (at 4.05892 3.50012 270) (layer B.SilkS)
      (effects (font (size 1 1) (thickness 0.15)) (justify mirror))
    )
    (fp_text value 1k (at 3.81 -3.81 270) (layer B.Fab)
      (effects (font (size 1 1) (thickness 0.15)) (justify mirror))
    )
    (fp_line (start -1.25 1.5) (end 8.85 1.5) (layer B.CrtYd) (width 0.05))
    (fp_line (start -1.25 -1.5) (end -1.25 1.5) (layer B.CrtYd) (width 0.05))
    (fp_line (start 8.85 1.5) (end 8.85 -1.5) (layer B.CrtYd) (width 0.05))
    (fp_line (start -1.25 -1.5) (end 8.85 -1.5) (layer B.CrtYd) (width 0.05))
    (fp_line (start 1.27 1.27) (end 6.35 1.27) (layer B.SilkS) (width 0.15))
    (fp_line (start 6.35 1.27) (end 6.35 -1.27) (layer B.SilkS) (width 0.15))
    (fp_line (start 6.35 -1.27) (end 1.27 -1.27) (layer B.SilkS) (width 0.15))
    (fp_line (start 1.27 -1.27) (end 1.27 1.27) (layer B.SilkS) (width 0.15))
    (pad 1 thru_hole circle (at 0 0 270) (size 1.99898 1.99898) (drill 1.00076) (layers *.Cu *.SilkS *.Mask)
      (net 11 "Net-(D10-Pad2)"))
    (pad 2 thru_hole circle (at 7.62 0 270) (size 1.99898 1.99898) (drill 1.00076) (layers *.Cu *.SilkS *.Mask)
      (net 20 "Net-(P1-Pad4)"))
  )

  (module Resistors_ThroughHole:Resistor_Horizontal_RM7mm (layer F.Cu) (tedit 569FCF07) (tstamp 584173D7)
    (at 189.5 109.1 180)
    (descr "Resistor, Axial,  RM 7.62mm, 1/3W,")
    (tags "Resistor Axial RM 7.62mm 1/3W R3")
    (path /584936AF)
    (fp_text reference R11 (at 4.05892 -3.50012 180) (layer F.SilkS)
      (effects (font (size 1 1) (thickness 0.15)))
    )
    (fp_text value 1k (at 3.81 3.81 180) (layer F.Fab)
      (effects (font (size 1 1) (thickness 0.15)))
    )
    (fp_line (start -1.25 -1.5) (end 8.85 -1.5) (layer F.CrtYd) (width 0.05))
    (fp_line (start -1.25 1.5) (end -1.25 -1.5) (layer F.CrtYd) (width 0.05))
    (fp_line (start 8.85 -1.5) (end 8.85 1.5) (layer F.CrtYd) (width 0.05))
    (fp_line (start -1.25 1.5) (end 8.85 1.5) (layer F.CrtYd) (width 0.05))
    (fp_line (start 1.27 -1.27) (end 6.35 -1.27) (layer F.SilkS) (width 0.15))
    (fp_line (start 6.35 -1.27) (end 6.35 1.27) (layer F.SilkS) (width 0.15))
    (fp_line (start 6.35 1.27) (end 1.27 1.27) (layer F.SilkS) (width 0.15))
    (fp_line (start 1.27 1.27) (end 1.27 -1.27) (layer F.SilkS) (width 0.15))
    (pad 1 thru_hole circle (at 0 0 180) (size 1.99898 1.99898) (drill 1.00076) (layers *.Cu *.SilkS *.Mask)
      (net 12 "Net-(D11-Pad2)"))
    (pad 2 thru_hole circle (at 7.62 0 180) (size 1.99898 1.99898) (drill 1.00076) (layers *.Cu *.SilkS *.Mask)
      (net 20 "Net-(P1-Pad4)"))
  )

  (module Resistors_ThroughHole:Resistor_Horizontal_RM7mm (layer F.Cu) (tedit 569FCF07) (tstamp 584173DD)
    (at 194 92.2 180)
    (descr "Resistor, Axial,  RM 7.62mm, 1/3W,")
    (tags "Resistor Axial RM 7.62mm 1/3W R3")
    (path /584937CB)
    (fp_text reference R12 (at 4.05892 -3.50012 180) (layer F.SilkS)
      (effects (font (size 1 1) (thickness 0.15)))
    )
    (fp_text value 1k (at 3.81 3.81 180) (layer F.Fab)
      (effects (font (size 1 1) (thickness 0.15)))
    )
    (fp_line (start -1.25 -1.5) (end 8.85 -1.5) (layer F.CrtYd) (width 0.05))
    (fp_line (start -1.25 1.5) (end -1.25 -1.5) (layer F.CrtYd) (width 0.05))
    (fp_line (start 8.85 -1.5) (end 8.85 1.5) (layer F.CrtYd) (width 0.05))
    (fp_line (start -1.25 1.5) (end 8.85 1.5) (layer F.CrtYd) (width 0.05))
    (fp_line (start 1.27 -1.27) (end 6.35 -1.27) (layer F.SilkS) (width 0.15))
    (fp_line (start 6.35 -1.27) (end 6.35 1.27) (layer F.SilkS) (width 0.15))
    (fp_line (start 6.35 1.27) (end 1.27 1.27) (layer F.SilkS) (width 0.15))
    (fp_line (start 1.27 1.27) (end 1.27 -1.27) (layer F.SilkS) (width 0.15))
    (pad 1 thru_hole circle (at 0 0 180) (size 1.99898 1.99898) (drill 1.00076) (layers *.Cu *.SilkS *.Mask)
      (net 13 "Net-(D12-Pad2)"))
    (pad 2 thru_hole circle (at 7.62 0 180) (size 1.99898 1.99898) (drill 1.00076) (layers *.Cu *.SilkS *.Mask)
      (net 20 "Net-(P1-Pad4)"))
  )

  (module Resistors_ThroughHole:Resistor_Horizontal_RM7mm (layer F.Cu) (tedit 569FCF07) (tstamp 584173E3)
    (at 208.3 116.3 90)
    (descr "Resistor, Axial,  RM 7.62mm, 1/3W,")
    (tags "Resistor Axial RM 7.62mm 1/3W R3")
    (path /584943D1)
    (fp_text reference R13 (at 4.05892 -3.50012 90) (layer F.SilkS)
      (effects (font (size 1 1) (thickness 0.15)))
    )
    (fp_text value 1k (at 3.81 3.81 90) (layer F.Fab)
      (effects (font (size 1 1) (thickness 0.15)))
    )
    (fp_line (start -1.25 -1.5) (end 8.85 -1.5) (layer F.CrtYd) (width 0.05))
    (fp_line (start -1.25 1.5) (end -1.25 -1.5) (layer F.CrtYd) (width 0.05))
    (fp_line (start 8.85 -1.5) (end 8.85 1.5) (layer F.CrtYd) (width 0.05))
    (fp_line (start -1.25 1.5) (end 8.85 1.5) (layer F.CrtYd) (width 0.05))
    (fp_line (start 1.27 -1.27) (end 6.35 -1.27) (layer F.SilkS) (width 0.15))
    (fp_line (start 6.35 -1.27) (end 6.35 1.27) (layer F.SilkS) (width 0.15))
    (fp_line (start 6.35 1.27) (end 1.27 1.27) (layer F.SilkS) (width 0.15))
    (fp_line (start 1.27 1.27) (end 1.27 -1.27) (layer F.SilkS) (width 0.15))
    (pad 1 thru_hole circle (at 0 0 90) (size 1.99898 1.99898) (drill 1.00076) (layers *.Cu *.SilkS *.Mask)
      (net 14 "Net-(D13-Pad2)"))
    (pad 2 thru_hole circle (at 7.62 0 90) (size 1.99898 1.99898) (drill 1.00076) (layers *.Cu *.SilkS *.Mask)
      (net 20 "Net-(P1-Pad4)"))
  )

  (module Resistors_ThroughHole:Resistor_Horizontal_RM7mm (layer B.Cu) (tedit 569FCF07) (tstamp 584173E9)
    (at 215.5 101.3)
    (descr "Resistor, Axial,  RM 7.62mm, 1/3W,")
    (tags "Resistor Axial RM 7.62mm 1/3W R3")
    (path /584943AD)
    (fp_text reference R14 (at 4.05892 3.50012) (layer B.SilkS)
      (effects (font (size 1 1) (thickness 0.15)) (justify mirror))
    )
    (fp_text value 1k (at 3.81 -3.81) (layer B.Fab)
      (effects (font (size 1 1) (thickness 0.15)) (justify mirror))
    )
    (fp_line (start -1.25 1.5) (end 8.85 1.5) (layer B.CrtYd) (width 0.05))
    (fp_line (start -1.25 -1.5) (end -1.25 1.5) (layer B.CrtYd) (width 0.05))
    (fp_line (start 8.85 1.5) (end 8.85 -1.5) (layer B.CrtYd) (width 0.05))
    (fp_line (start -1.25 -1.5) (end 8.85 -1.5) (layer B.CrtYd) (width 0.05))
    (fp_line (start 1.27 1.27) (end 6.35 1.27) (layer B.SilkS) (width 0.15))
    (fp_line (start 6.35 1.27) (end 6.35 -1.27) (layer B.SilkS) (width 0.15))
    (fp_line (start 6.35 -1.27) (end 1.27 -1.27) (layer B.SilkS) (width 0.15))
    (fp_line (start 1.27 -1.27) (end 1.27 1.27) (layer B.SilkS) (width 0.15))
    (pad 1 thru_hole circle (at 0 0) (size 1.99898 1.99898) (drill 1.00076) (layers *.Cu *.SilkS *.Mask)
      (net 15 "Net-(D14-Pad2)"))
    (pad 2 thru_hole circle (at 7.62 0) (size 1.99898 1.99898) (drill 1.00076) (layers *.Cu *.SilkS *.Mask)
      (net 21 "Net-(P1-Pad3)"))
  )

  (module Resistors_ThroughHole:Resistor_Horizontal_RM7mm (layer B.Cu) (tedit 569FCF07) (tstamp 584173EF)
    (at 187.3 122.3 180)
    (descr "Resistor, Axial,  RM 7.62mm, 1/3W,")
    (tags "Resistor Axial RM 7.62mm 1/3W R3")
    (path /584943B9)
    (fp_text reference R15 (at 4.05892 3.50012 180) (layer B.SilkS)
      (effects (font (size 1 1) (thickness 0.15)) (justify mirror))
    )
    (fp_text value 1k (at 3.81 -3.81 180) (layer B.Fab)
      (effects (font (size 1 1) (thickness 0.15)) (justify mirror))
    )
    (fp_line (start -1.25 1.5) (end 8.85 1.5) (layer B.CrtYd) (width 0.05))
    (fp_line (start -1.25 -1.5) (end -1.25 1.5) (layer B.CrtYd) (width 0.05))
    (fp_line (start 8.85 1.5) (end 8.85 -1.5) (layer B.CrtYd) (width 0.05))
    (fp_line (start -1.25 -1.5) (end 8.85 -1.5) (layer B.CrtYd) (width 0.05))
    (fp_line (start 1.27 1.27) (end 6.35 1.27) (layer B.SilkS) (width 0.15))
    (fp_line (start 6.35 1.27) (end 6.35 -1.27) (layer B.SilkS) (width 0.15))
    (fp_line (start 6.35 -1.27) (end 1.27 -1.27) (layer B.SilkS) (width 0.15))
    (fp_line (start 1.27 -1.27) (end 1.27 1.27) (layer B.SilkS) (width 0.15))
    (pad 1 thru_hole circle (at 0 0 180) (size 1.99898 1.99898) (drill 1.00076) (layers *.Cu *.SilkS *.Mask)
      (net 16 "Net-(D15-Pad2)"))
    (pad 2 thru_hole circle (at 7.62 0 180) (size 1.99898 1.99898) (drill 1.00076) (layers *.Cu *.SilkS *.Mask)
      (net 22 "Net-(P1-Pad2)"))
  )

  (module Resistors_ThroughHole:Resistor_Horizontal_RM7mm (layer B.Cu) (tedit 569FCF07) (tstamp 584173F5)
    (at 193.3 112.2 270)
    (descr "Resistor, Axial,  RM 7.62mm, 1/3W,")
    (tags "Resistor Axial RM 7.62mm 1/3W R3")
    (path /584943C5)
    (fp_text reference R16 (at 4.05892 3.50012 270) (layer B.SilkS)
      (effects (font (size 1 1) (thickness 0.15)) (justify mirror))
    )
    (fp_text value 1k (at 3.81 -3.81 270) (layer B.Fab)
      (effects (font (size 1 1) (thickness 0.15)) (justify mirror))
    )
    (fp_line (start -1.25 1.5) (end 8.85 1.5) (layer B.CrtYd) (width 0.05))
    (fp_line (start -1.25 -1.5) (end -1.25 1.5) (layer B.CrtYd) (width 0.05))
    (fp_line (start 8.85 1.5) (end 8.85 -1.5) (layer B.CrtYd) (width 0.05))
    (fp_line (start -1.25 -1.5) (end 8.85 -1.5) (layer B.CrtYd) (width 0.05))
    (fp_line (start 1.27 1.27) (end 6.35 1.27) (layer B.SilkS) (width 0.15))
    (fp_line (start 6.35 1.27) (end 6.35 -1.27) (layer B.SilkS) (width 0.15))
    (fp_line (start 6.35 -1.27) (end 1.27 -1.27) (layer B.SilkS) (width 0.15))
    (fp_line (start 1.27 -1.27) (end 1.27 1.27) (layer B.SilkS) (width 0.15))
    (pad 1 thru_hole circle (at 0 0 270) (size 1.99898 1.99898) (drill 1.00076) (layers *.Cu *.SilkS *.Mask)
      (net 17 "Net-(D16-Pad2)"))
    (pad 2 thru_hole circle (at 7.62 0 270) (size 1.99898 1.99898) (drill 1.00076) (layers *.Cu *.SilkS *.Mask)
      (net 23 "Net-(P1-Pad1)"))
  )

  (module Resistors_ThroughHole:Resistor_Horizontal_RM7mm (layer F.Cu) (tedit 569FCF07) (tstamp 584177FD)
    (at 180.6 132.7 180)
    (descr "Resistor, Axial,  RM 7.62mm, 1/3W,")
    (tags "Resistor Axial RM 7.62mm 1/3W R3")
    (path /58496A94)
    (fp_text reference R17 (at 4.05892 -3.50012 180) (layer F.SilkS)
      (effects (font (size 1 1) (thickness 0.15)))
    )
    (fp_text value 1k (at 3.81 3.81 180) (layer F.Fab)
      (effects (font (size 1 1) (thickness 0.15)))
    )
    (fp_line (start 1.27 1.27) (end 1.27 -1.27) (layer F.SilkS) (width 0.15))
    (fp_line (start 6.35 1.27) (end 1.27 1.27) (layer F.SilkS) (width 0.15))
    (fp_line (start 6.35 -1.27) (end 6.35 1.27) (layer F.SilkS) (width 0.15))
    (fp_line (start 1.27 -1.27) (end 6.35 -1.27) (layer F.SilkS) (width 0.15))
    (fp_line (start -1.25 1.5) (end 8.85 1.5) (layer F.CrtYd) (width 0.05))
    (fp_line (start 8.85 -1.5) (end 8.85 1.5) (layer F.CrtYd) (width 0.05))
    (fp_line (start -1.25 1.5) (end -1.25 -1.5) (layer F.CrtYd) (width 0.05))
    (fp_line (start -1.25 -1.5) (end 8.85 -1.5) (layer F.CrtYd) (width 0.05))
    (pad 2 thru_hole circle (at 7.62 0 180) (size 1.99898 1.99898) (drill 1.00076) (layers *.Cu *.SilkS *.Mask)
      (net 18 "Net-(LS1-Pad1)"))
    (pad 1 thru_hole circle (at 0 0 180) (size 1.99898 1.99898) (drill 1.00076) (layers *.Cu *.SilkS *.Mask)
      (net 24 "Net-(P3-Pad4)"))
  )

  (gr_line (start 200 158.4) (end 198.4 158.4) (layer Edge.Cuts) (width 0.15))
  (gr_line (start 200 59.04) (end 198.4 59.04) (layer Edge.Cuts) (width 0.15))
  (gr_line (start 174.2 78.4) (end 198.4 59.04) (layer Edge.Cuts) (width 0.1))
  (gr_line (start 189.2 78.4) (end 174.2 78.4) (layer Edge.Cuts) (width 0.1))
  (gr_line (start 159.2 108.4) (end 189.2 78.4) (layer Edge.Cuts) (width 0.1))
  (gr_line (start 179.2 108.4) (end 159.2 108.4) (layer Edge.Cuts) (width 0.1))
  (gr_line (start 149.2 158.4) (end 179.2 108.4) (layer Edge.Cuts) (width 0.1))
  (gr_line (start 198.4 158.4) (end 149.2 158.4) (layer Edge.Cuts) (width 0.1))
  (gr_line (start 249.2 158.4) (end 200 158.4) (layer Edge.Cuts) (width 0.1))
  (gr_line (start 219.2 108.4) (end 249.2 158.4) (layer Edge.Cuts) (width 0.1))
  (gr_line (start 239.2 108.4) (end 219.2 108.4) (layer Edge.Cuts) (width 0.1))
  (gr_line (start 209.2 78.4) (end 239.2 108.4) (layer Edge.Cuts) (width 0.1))
  (gr_line (start 224.2 78.4) (end 209.2 78.4) (layer Edge.Cuts) (width 0.1))
  (gr_line (start 200 59.04) (end 224.2 78.4) (layer Edge.Cuts) (width 0.1))
  (gr_line (start 187.77 158.4) (end 187.77 155.86) (layer B.SilkS) (width 0.1))
  (gr_line (start 177.61 158.4) (end 187.77 158.4) (layer F.SilkS) (width 0.1))
  (gr_line (start 177.61 155.86) (end 177.61 158.4) (layer B.SilkS) (width 0.1))
  (gr_line (start 187.77 155.86) (end 177.61 155.86) (layer B.SilkS) (width 0.1))
  (gr_line (start 210.63 158.4) (end 210.63 155.86) (layer B.SilkS) (width 0.1))
  (gr_line (start 200.47 158.4) (end 210.63 158.4) (layer F.SilkS) (width 0.1))
  (gr_line (start 200.47 155.86) (end 200.47 158.4) (layer B.SilkS) (width 0.1))
  (gr_line (start 210.63 155.86) (end 200.47 155.86) (layer B.SilkS) (width 0.1))
  (gr_line (start 210.63 158.4) (end 210.63 155.86) (layer F.SilkS) (width 0.1))
  (gr_line (start 220.79 158.4) (end 210.63 158.4) (layer F.SilkS) (width 0.1))
  (gr_line (start 220.79 155.86) (end 220.79 158.4) (layer F.SilkS) (width 0.1))
  (gr_line (start 210.63 155.86) (end 220.79 155.86) (layer F.SilkS) (width 0.1))
  (gr_line (start 187.77 158.4) (end 187.77 155.86) (layer F.SilkS) (width 0.1))
  (gr_line (start 197.93 158.4) (end 187.77 158.4) (layer F.SilkS) (width 0.1))
  (gr_line (start 197.93 155.86) (end 197.93 158.4) (layer F.SilkS) (width 0.1))
  (gr_line (start 187.77 155.86) (end 197.93 155.86) (layer F.SilkS) (width 0.1))

)
