EESchema Schematic File Version 2
LIBS:power
LIBS:device
LIBS:transistors
LIBS:conn
LIBS:linear
LIBS:regul
LIBS:74xx
LIBS:cmos4000
LIBS:adc-dac
LIBS:memory
LIBS:xilinx
LIBS:microcontrollers
LIBS:dsp
LIBS:microchip
LIBS:analog_switches
LIBS:motorola
LIBS:texas
LIBS:intel
LIBS:audio
LIBS:interface
LIBS:digital-audio
LIBS:philips
LIBS:display
LIBS:cypress
LIBS:siliconi
LIBS:opto
LIBS:atmel
LIBS:contrib
LIBS:valves
LIBS:Xmas_board-cache
EELAYER 26 0
EELAYER END
$Descr A4 11693 8268
encoding utf-8
Sheet 1 1
Title ""
Date ""
Rev ""
Comp ""
Comment1 ""
Comment2 ""
Comment3 ""
Comment4 ""
$EndDescr
$Comp
L CONN_01X04 P1
U 1 1 5848F8BC
P 1200 1225
F 0 "P1" H 1119 850 50  0000 C CNN
F 1 "CONN_01X04" H 1119 941 50  0000 C CNN
F 2 "Pin_Headers:Pin_Header_Angled_1x04" H 1200 1225 50  0001 C CNN
F 3 "" H 1200 1225 50  0000 C CNN
	1    1200 1225
	-1   0    0    1   
$EndComp
$Comp
L CONN_01X04 P2
U 1 1 5848F953
P 1200 1750
F 0 "P2" H 1119 1375 50  0000 C CNN
F 1 "CONN_01X04" H 1119 1466 50  0000 C CNN
F 2 "Pin_Headers:Pin_Header_Angled_1x04" H 1200 1750 50  0001 C CNN
F 3 "" H 1200 1750 50  0000 C CNN
	1    1200 1750
	-1   0    0    1   
$EndComp
$Comp
L CONN_01X04 P3
U 1 1 5848F9A2
P 1200 2275
F 0 "P3" H 1119 1900 50  0000 C CNN
F 1 "CONN_01X04" H 1119 1991 50  0000 C CNN
F 2 "Pin_Headers:Pin_Header_Angled_1x04" H 1200 2275 50  0001 C CNN
F 3 "" H 1200 2275 50  0000 C CNN
	1    1200 2275
	-1   0    0    1   
$EndComp
$Comp
L CONN_01X04 P4
U 1 1 5848F9DB
P 1200 2800
F 0 "P4" H 1119 2425 50  0000 C CNN
F 1 "CONN_01X04" H 1119 2516 50  0000 C CNN
F 2 "Pin_Headers:Pin_Header_Angled_1x04" H 1200 2800 50  0001 C CNN
F 3 "" H 1200 2800 50  0000 C CNN
	1    1200 2800
	-1   0    0    1   
$EndComp
$Comp
L R_Small R1
U 1 1 5848FBE9
P 1750 1175
F 0 "R1" V 1750 1025 50  0000 C CNN
F 1 "1k" V 1750 1175 50  0000 C CNN
F 2 "Resistors_ThroughHole:Resistor_Horizontal_RM7mm" H 1750 1175 50  0001 C CNN
F 3 "" H 1750 1175 50  0000 C CNN
	1    1750 1175
	0    1    1    0   
$EndComp
$Comp
L LED D1
U 1 1 5848FCFE
P 2000 1175
F 0 "D1" H 2000 850 50  0000 C CNN
F 1 "LED" H 1875 1050 50  0000 C CNN
F 2 "LEDs:LED_1206" H 2000 1175 50  0001 C CNN
F 3 "" H 2000 1175 50  0000 C CNN
	1    2000 1175
	-1   0    0    1   
$EndComp
$Comp
L R_Small R2
U 1 1 5848FEFE
P 1750 1275
F 0 "R2" V 1750 1125 50  0000 C CNN
F 1 "1k" V 1750 1275 50  0000 C CNN
F 2 "Resistors_ThroughHole:Resistor_Horizontal_RM7mm" H 1750 1275 50  0001 C CNN
F 3 "" H 1750 1275 50  0000 C CNN
	1    1750 1275
	0    1    1    0   
$EndComp
$Comp
L LED D2
U 1 1 5848FF04
P 2000 1275
F 0 "D2" H 2000 925 50  0000 C CNN
F 1 "LED" H 2125 1325 50  0000 C CNN
F 2 "LEDs:LED_1206" H 2000 1275 50  0001 C CNN
F 3 "" H 2000 1275 50  0000 C CNN
	1    2000 1275
	-1   0    0    1   
$EndComp
$Comp
L R_Small R3
U 1 1 5848FF66
P 1750 1375
F 0 "R3" V 1750 1225 50  0000 C CNN
F 1 "1k" V 1750 1375 50  0000 C CNN
F 2 "Resistors_ThroughHole:Resistor_Horizontal_RM7mm" H 1750 1375 50  0001 C CNN
F 3 "" H 1750 1375 50  0000 C CNN
	1    1750 1375
	0    1    1    0   
$EndComp
$Comp
L LED D3
U 1 1 5848FF6C
P 2000 1375
F 0 "D3" H 2000 1000 50  0000 C CNN
F 1 "LED" H 1875 1425 50  0000 C CNN
F 2 "LEDs:LED_1206" H 2000 1375 50  0001 C CNN
F 3 "" H 2000 1375 50  0000 C CNN
	1    2000 1375
	-1   0    0    1   
$EndComp
$Comp
L R_Small R4
U 1 1 584918BD
P 2725 1175
F 0 "R4" V 2725 1025 50  0000 C CNN
F 1 "1k" V 2725 1175 50  0000 C CNN
F 2 "Resistors_ThroughHole:Resistor_Horizontal_RM7mm" H 2725 1175 50  0001 C CNN
F 3 "" H 2725 1175 50  0000 C CNN
	1    2725 1175
	0    1    1    0   
$EndComp
$Comp
L LED D4
U 1 1 584918C3
P 2975 1175
F 0 "D4" H 2975 850 50  0000 C CNN
F 1 "LED" H 2850 1050 50  0000 C CNN
F 2 "LEDs:LED_1206" H 2975 1175 50  0001 C CNN
F 3 "" H 2975 1175 50  0000 C CNN
	1    2975 1175
	-1   0    0    1   
$EndComp
$Comp
L R_Small R5
U 1 1 584918C9
P 2725 1275
F 0 "R5" V 2725 1125 50  0000 C CNN
F 1 "1k" V 2725 1275 50  0000 C CNN
F 2 "Resistors_ThroughHole:Resistor_Horizontal_RM7mm" H 2725 1275 50  0001 C CNN
F 3 "" H 2725 1275 50  0000 C CNN
	1    2725 1275
	0    1    1    0   
$EndComp
$Comp
L LED D5
U 1 1 584918CF
P 2975 1275
F 0 "D5" H 2975 925 50  0000 C CNN
F 1 "LED" H 3100 1325 50  0000 C CNN
F 2 "LEDs:LED_1206" H 2975 1275 50  0001 C CNN
F 3 "" H 2975 1275 50  0000 C CNN
	1    2975 1275
	-1   0    0    1   
$EndComp
$Comp
L R_Small R6
U 1 1 584918D5
P 2725 1375
F 0 "R6" V 2725 1225 50  0000 C CNN
F 1 "1k" V 2725 1375 50  0000 C CNN
F 2 "Resistors_ThroughHole:Resistor_Horizontal_RM7mm" H 2725 1375 50  0001 C CNN
F 3 "" H 2725 1375 50  0000 C CNN
	1    2725 1375
	0    1    1    0   
$EndComp
$Comp
L LED D6
U 1 1 584918DB
P 2975 1375
F 0 "D6" H 2975 1000 50  0000 C CNN
F 1 "LED" H 2850 1425 50  0000 C CNN
F 2 "LEDs:LED_1206" H 2975 1375 50  0001 C CNN
F 3 "" H 2975 1375 50  0000 C CNN
	1    2975 1375
	-1   0    0    1   
$EndComp
$Comp
L R_Small R7
U 1 1 584919B5
P 3625 1175
F 0 "R7" V 3625 1025 50  0000 C CNN
F 1 "1k" V 3625 1175 50  0000 C CNN
F 2 "Resistors_ThroughHole:Resistor_Horizontal_RM7mm" H 3625 1175 50  0001 C CNN
F 3 "" H 3625 1175 50  0000 C CNN
	1    3625 1175
	0    1    1    0   
$EndComp
$Comp
L LED D7
U 1 1 584919BB
P 3875 1175
F 0 "D7" H 3875 850 50  0000 C CNN
F 1 "LED" H 3750 1050 50  0000 C CNN
F 2 "LEDs:LED_1206" H 3875 1175 50  0001 C CNN
F 3 "" H 3875 1175 50  0000 C CNN
	1    3875 1175
	-1   0    0    1   
$EndComp
$Comp
L R_Small R8
U 1 1 584919C1
P 3625 1275
F 0 "R8" V 3625 1125 50  0000 C CNN
F 1 "1k" V 3625 1275 50  0000 C CNN
F 2 "Resistors_ThroughHole:Resistor_Horizontal_RM7mm" H 3625 1275 50  0001 C CNN
F 3 "" H 3625 1275 50  0000 C CNN
	1    3625 1275
	0    1    1    0   
$EndComp
$Comp
L LED D8
U 1 1 584919C7
P 3875 1275
F 0 "D8" H 3875 925 50  0000 C CNN
F 1 "LED" H 4000 1325 50  0000 C CNN
F 2 "LEDs:LED_1206" H 3875 1275 50  0001 C CNN
F 3 "" H 3875 1275 50  0000 C CNN
	1    3875 1275
	-1   0    0    1   
$EndComp
$Comp
L R_Small R9
U 1 1 584919CD
P 3625 1375
F 0 "R9" V 3625 1225 50  0000 C CNN
F 1 "1k" V 3625 1375 50  0000 C CNN
F 2 "Resistors_ThroughHole:Resistor_Horizontal_RM7mm" H 3625 1375 50  0001 C CNN
F 3 "" H 3625 1375 50  0000 C CNN
	1    3625 1375
	0    1    1    0   
$EndComp
$Comp
L LED D9
U 1 1 584919D3
P 3875 1375
F 0 "D9" H 3875 1000 50  0000 C CNN
F 1 "LED" H 3750 1425 50  0000 C CNN
F 2 "LEDs:LED_1206" H 3875 1375 50  0001 C CNN
F 3 "" H 3875 1375 50  0000 C CNN
	1    3875 1375
	-1   0    0    1   
$EndComp
$Comp
L GND #PWR01
U 1 1 58492156
P 1525 3100
F 0 "#PWR01" H 1525 2850 50  0001 C CNN
F 1 "GND" H 1530 2927 50  0000 C CNN
F 2 "" H 1525 3100 50  0000 C CNN
F 3 "" H 1525 3100 50  0000 C CNN
	1    1525 3100
	1    0    0    -1  
$EndComp
$Comp
L R_Small R10
U 1 1 5849357D
P 1750 1075
F 0 "R10" V 1750 925 50  0000 C CNN
F 1 "1k" V 1750 1075 50  0000 C CNN
F 2 "Resistors_ThroughHole:Resistor_Horizontal_RM7mm" H 1750 1075 50  0001 C CNN
F 3 "" H 1750 1075 50  0000 C CNN
	1    1750 1075
	0    1    1    0   
$EndComp
$Comp
L LED D10
U 1 1 58493583
P 2000 1075
F 0 "D10" H 2000 750 50  0000 C CNN
F 1 "LED" H 1875 950 50  0000 C CNN
F 2 "LEDs:LED_1206" H 2000 1075 50  0001 C CNN
F 3 "" H 2000 1075 50  0000 C CNN
	1    2000 1075
	-1   0    0    1   
$EndComp
$Comp
L R_Small R11
U 1 1 584936AF
P 2725 1075
F 0 "R11" V 2725 925 50  0000 C CNN
F 1 "1k" V 2725 1075 50  0000 C CNN
F 2 "Resistors_ThroughHole:Resistor_Horizontal_RM7mm" H 2725 1075 50  0001 C CNN
F 3 "" H 2725 1075 50  0000 C CNN
	1    2725 1075
	0    1    1    0   
$EndComp
$Comp
L LED D11
U 1 1 584936B5
P 2975 1075
F 0 "D11" H 2975 750 50  0000 C CNN
F 1 "LED" H 2850 950 50  0000 C CNN
F 2 "LEDs:LED_1206" H 2975 1075 50  0001 C CNN
F 3 "" H 2975 1075 50  0000 C CNN
	1    2975 1075
	-1   0    0    1   
$EndComp
$Comp
L R_Small R12
U 1 1 584937CB
P 3625 1075
F 0 "R12" V 3625 925 50  0000 C CNN
F 1 "1k" V 3625 1075 50  0000 C CNN
F 2 "Resistors_ThroughHole:Resistor_Horizontal_RM7mm" H 3625 1075 50  0001 C CNN
F 3 "" H 3625 1075 50  0000 C CNN
	1    3625 1075
	0    1    1    0   
$EndComp
$Comp
L LED D12
U 1 1 584937D1
P 3875 1075
F 0 "D12" H 3875 750 50  0000 C CNN
F 1 "LED" H 3750 950 50  0000 C CNN
F 2 "LEDs:LED_1206" H 3875 1075 50  0001 C CNN
F 3 "" H 3875 1075 50  0000 C CNN
	1    3875 1075
	-1   0    0    1   
$EndComp
$Comp
L R_Small R14
U 1 1 584943AD
P 4500 1175
F 0 "R14" V 4500 1025 50  0000 C CNN
F 1 "1k" V 4500 1175 50  0000 C CNN
F 2 "Resistors_ThroughHole:Resistor_Horizontal_RM7mm" H 4500 1175 50  0001 C CNN
F 3 "" H 4500 1175 50  0000 C CNN
	1    4500 1175
	0    1    1    0   
$EndComp
$Comp
L LED D14
U 1 1 584943B3
P 4750 1175
F 0 "D14" H 4750 850 50  0000 C CNN
F 1 "LED" H 4625 1050 50  0000 C CNN
F 2 "LEDs:LED_1206" H 4750 1175 50  0001 C CNN
F 3 "" H 4750 1175 50  0000 C CNN
	1    4750 1175
	-1   0    0    1   
$EndComp
$Comp
L R_Small R15
U 1 1 584943B9
P 4500 1275
F 0 "R15" V 4500 1125 50  0000 C CNN
F 1 "1k" V 4500 1275 50  0000 C CNN
F 2 "Resistors_ThroughHole:Resistor_Horizontal_RM7mm" H 4500 1275 50  0001 C CNN
F 3 "" H 4500 1275 50  0000 C CNN
	1    4500 1275
	0    1    1    0   
$EndComp
$Comp
L LED D15
U 1 1 584943BF
P 4750 1275
F 0 "D15" H 4750 925 50  0000 C CNN
F 1 "LED" H 4875 1325 50  0000 C CNN
F 2 "LEDs:LED_1206" H 4750 1275 50  0001 C CNN
F 3 "" H 4750 1275 50  0000 C CNN
	1    4750 1275
	-1   0    0    1   
$EndComp
$Comp
L R_Small R16
U 1 1 584943C5
P 4500 1375
F 0 "R16" V 4500 1225 50  0000 C CNN
F 1 "1k" V 4500 1375 50  0000 C CNN
F 2 "Resistors_ThroughHole:Resistor_Horizontal_RM7mm" H 4500 1375 50  0001 C CNN
F 3 "" H 4500 1375 50  0000 C CNN
	1    4500 1375
	0    1    1    0   
$EndComp
$Comp
L LED D16
U 1 1 584943CB
P 4750 1375
F 0 "D16" H 4750 1000 50  0000 C CNN
F 1 "LED" H 4625 1425 50  0000 C CNN
F 2 "LEDs:LED_1206" H 4750 1375 50  0001 C CNN
F 3 "" H 4750 1375 50  0000 C CNN
	1    4750 1375
	-1   0    0    1   
$EndComp
$Comp
L R_Small R13
U 1 1 584943D1
P 4500 1075
F 0 "R13" V 4500 925 50  0000 C CNN
F 1 "1k" V 4500 1075 50  0000 C CNN
F 2 "Resistors_ThroughHole:Resistor_Horizontal_RM7mm" H 4500 1075 50  0001 C CNN
F 3 "" H 4500 1075 50  0000 C CNN
	1    4500 1075
	0    1    1    0   
$EndComp
$Comp
L LED D13
U 1 1 584943D7
P 4750 1075
F 0 "D13" H 4750 750 50  0000 C CNN
F 1 "LED" H 4625 950 50  0000 C CNN
F 2 "LEDs:LED_1206" H 4750 1075 50  0001 C CNN
F 3 "" H 4750 1075 50  0000 C CNN
	1    4750 1075
	-1   0    0    1   
$EndComp
$Comp
L Speaker LS1
U 1 1 5849658F
P 2600 2250
F 0 "LS1" H 2770 2246 50  0000 L CNN
F 1 "Speaker" H 2770 2155 50  0000 L CNN
F 2 "Buzzers_Beepers:BUZZER" H 2600 2050 50  0001 C CNN
F 3 "" H 2590 2200 50  0000 C CNN
	1    2600 2250
	1    0    0    -1  
$EndComp
$Comp
L R_Small R17
U 1 1 58496A94
P 1875 2125
F 0 "R17" H 1934 2171 50  0000 L CNN
F 1 "1k" V 1875 2075 50  0000 L CNN
F 2 "Resistors_ThroughHole:Resistor_Horizontal_RM7mm" H 1875 2125 50  0001 C CNN
F 3 "" H 1875 2125 50  0000 C CNN
	1    1875 2125
	0    -1   -1   0   
$EndComp
Wire Wire Line
	1400 1175 1650 1175
Wire Wire Line
	1400 1275 1650 1275
Wire Wire Line
	1400 1375 1650 1375
Wire Wire Line
	2150 1175 2300 1175
Wire Wire Line
	2150 1275 2350 1275
Wire Wire Line
	2150 1375 2400 1375
Wire Wire Line
	1400 1075 1650 1075
Wire Wire Line
	2150 1075 2250 1075
Wire Wire Line
	1400 1600 2400 1600
Wire Wire Line
	2250 1075 2250 1600
Connection ~ 2250 1600
Wire Wire Line
	2400 2125 2400 2250
Wire Wire Line
	2400 2350 2400 3100
Wire Wire Line
	2400 3100 1525 3100
Wire Wire Line
	1975 2125 2400 2125
Wire Wire Line
	1400 2125 1775 2125
Wire Wire Line
	1400 2225 1525 2225
Wire Wire Line
	1525 2225 1525 3100
Wire Wire Line
	1400 2325 1525 2325
Connection ~ 1525 2325
Wire Wire Line
	1400 2425 1525 2425
Connection ~ 1525 2425
Wire Wire Line
	1400 2650 1525 2650
Connection ~ 1525 2650
Wire Wire Line
	1400 2750 1525 2750
Connection ~ 1525 2750
Wire Wire Line
	1400 2850 1525 2850
Connection ~ 1525 2850
Wire Wire Line
	1400 2950 1525 2950
Connection ~ 1525 2950
Wire Wire Line
	2300 1175 2300 1600
Wire Wire Line
	2350 1275 2350 1600
Connection ~ 2300 1600
Wire Wire Line
	2400 1600 2400 1375
Connection ~ 2350 1600
Wire Wire Line
	1625 1375 1625 975 
Wire Wire Line
	1625 975  4350 975 
Wire Wire Line
	2600 975  2600 1375
Wire Wire Line
	2600 1375 2625 1375
Connection ~ 1625 1375
Wire Wire Line
	1575 1275 1575 925 
Wire Wire Line
	1575 925  4300 925 
Wire Wire Line
	2550 925  2550 1275
Wire Wire Line
	2550 1275 2625 1275
Connection ~ 1575 1275
Wire Wire Line
	2625 1175 2500 1175
Wire Wire Line
	2500 1175 2500 875 
Wire Wire Line
	1525 875  4250 875 
Wire Wire Line
	1525 875  1525 1175
Connection ~ 1525 1175
Wire Wire Line
	1475 1075 1475 825 
Wire Wire Line
	1475 825  4200 825 
Wire Wire Line
	2450 825  2450 1075
Wire Wire Line
	2450 1075 2625 1075
Connection ~ 1475 1075
Wire Wire Line
	1400 1700 3375 1700
Wire Wire Line
	3225 1700 3225 1075
Wire Wire Line
	3225 1075 3125 1075
Wire Wire Line
	3125 1175 3275 1175
Wire Wire Line
	3275 1175 3275 1700
Connection ~ 3225 1700
Wire Wire Line
	3125 1275 3325 1275
Wire Wire Line
	3325 1275 3325 1700
Connection ~ 3275 1700
Wire Wire Line
	3125 1375 3375 1375
Wire Wire Line
	3375 1375 3375 1700
Connection ~ 3325 1700
Wire Wire Line
	3500 975  3500 1375
Wire Wire Line
	3500 1375 3525 1375
Connection ~ 2600 975 
Wire Wire Line
	3450 925  3450 1275
Wire Wire Line
	3450 1275 3525 1275
Connection ~ 2550 925 
Wire Wire Line
	3525 1175 3400 1175
Wire Wire Line
	3400 1175 3400 875 
Connection ~ 2500 875 
Wire Wire Line
	3350 825  3350 1075
Wire Wire Line
	3350 1075 3525 1075
Connection ~ 2450 825 
Wire Wire Line
	1400 1800 4250 1800
Wire Wire Line
	4250 1800 4250 1375
Wire Wire Line
	4250 1375 4025 1375
Wire Wire Line
	4025 1275 4200 1275
Wire Wire Line
	4200 1275 4200 1800
Connection ~ 4200 1800
Wire Wire Line
	4025 1175 4150 1175
Wire Wire Line
	4150 1175 4150 1800
Connection ~ 4150 1800
Wire Wire Line
	4025 1075 4100 1075
Wire Wire Line
	4100 1075 4100 1800
Connection ~ 4100 1800
Wire Wire Line
	4400 1375 4350 1375
Wire Wire Line
	4350 1375 4350 975 
Connection ~ 3500 975 
Wire Wire Line
	4300 925  4300 1275
Wire Wire Line
	4300 1275 4400 1275
Connection ~ 3450 925 
Wire Wire Line
	4400 1175 4250 1175
Wire Wire Line
	4250 1175 4250 875 
Connection ~ 3400 875 
Wire Wire Line
	4200 825  4200 1075
Wire Wire Line
	4200 1075 4400 1075
Connection ~ 3350 825 
Wire Wire Line
	1400 1900 5100 1900
Wire Wire Line
	5100 1900 5100 1375
Wire Wire Line
	5100 1375 4900 1375
Wire Wire Line
	4900 1275 5050 1275
Wire Wire Line
	5050 1275 5050 1900
Connection ~ 5050 1900
Wire Wire Line
	4900 1175 5000 1175
Wire Wire Line
	5000 1175 5000 1900
Connection ~ 5000 1900
Wire Wire Line
	4900 1075 4950 1075
Wire Wire Line
	4950 1075 4950 1900
Connection ~ 4950 1900
$EndSCHEMATC
